{
  "children": [
    {
      "children": [
        {
          "name": "81a3e264-5916-445c-a338-9e9bf58f45a0"
        },
        {
          "children": [
            {
              "children": [
                {
                  "name": "dfe36509-540f-42df-9a1e-3d5e81f8b52a"
                }
              ],
              "name": "d3a552fe-0677-4b2d-8345-c4e6cb41e35a"
            },
            {
              "children": [
                {
                  "name": "3de99ab2-5452-4a01-b9f6-b5fa3ea99b51"
                }
              ],
              "name": "cf8482e6-062f-4df0-90fc-b955c687609d"
            }
          ],
          "name": "18e9c503-9102-4efc-977e-d70a2952d885"
        },
        {
          "name": "e064b302-9278-4550-bcbd-2980dde20a33"
        },
        {
          "name": "7b894278-d731-4b70-8449-56158e983483"
        },
        {
          "children": [
            {
              "name": "ae7b1cc1-f701-43ef-87b9-a807f53e37df"
            },
            {
              "name": "caa5c49d-7ddd-413a-a055-8ee542eb2bd2"
            },
            {
              "name": "e5b03a34-7f20-4d07-b18c-780090843339"
            },
            {
              "name": "cacb88c0-69a9-4c7c-b527-3f12aebaa47f"
            }
          ],
          "name": "aed30fd8-0a15-4171-a407-15335a2c97c7"
        },
        {
          "children": [
            {
              "name": "a1a3124d-6d20-4d96-8b5b-0825bd2444ea"
            },
            {
              "children": [
                {
                  "name": "ba120903-75a4-4e0c-aae4-72762089ac33"
                },
                {
                  "name": "100be259-7be3-46a5-bf9a-6cbaed4d2faa"
                },
                {
                  "name": "22fca49e-78f9-43f0-8662-5c5641ba86fa"
                }
              ],
              "name": "c144701c-3a5d-4647-aa9e-9599306310e7"
            },
            {
              "name": "f9516d49-45b2-4373-b6f1-2f17483a6dc8"
            },
            {
              "children": [
                {
                  "name": "6c45a942-4c71-4ba3-a3cf-8b9f0e2d878a"
                },
                {
                  "name": "cb1459d1-3003-49de-ab0b-617ab0e7a563"
                }
              ],
              "name": "6f2863c3-fb0b-4299-889d-30e13bf40f94"
            }
          ],
          "name": "069ca595-bf58-40a3-b48e-8217158f3ddb"
        },
        {
          "children": [
            {
              "name": "9a409a26-ef37-4655-83ec-cdbd5c2f4e0e"
            },
            {
              "name": "0486b10d-501a-47d7-bc1b-a6190645ecb0"
            },
            {
              "name": "03cea8f5-04b2-4af4-8273-e6c38106a35f"
            },
            {
              "name": "2d5d50d9-aa83-4d5c-a082-8156432605f7"
            },
            {
              "name": "ecab8ba5-404a-4721-a63b-a0d63375d636"
            }
          ],
          "name": "d67a9e45-1ea0-4aca-b4db-5e22c33b674b"
        },
        {
          "name": "f026a59d-04ed-412e-86dd-cbe02b4deae3"
        },
        {
          "children": [
            {
              "children": [
                {
                  "name": "92d3931d-e21d-451c-8de8-f29d29418948"
                }
              ],
              "name": "1d8b50d9-08cb-41dd-a74f-ac9ab3217446"
            },
            {
              "children": [
                {
                  "name": "5ecbef3b-f23a-4092-82b3-2bbd785daaee"
                }
              ],
              "name": "76bab7bf-9c87-4c65-9e43-256036a0664d"
            }
          ],
          "name": "2d815e67-77c1-4754-bac6-ebd834efd634"
        },
        {
          "name": "e64800a3-763f-426f-9a47-50a6c01470dd"
        },
        {
          "name": "296d8b24-f3e6-4ffb-9129-2ddc2f70b77c"
        },
        {
          "children": [
            {
              "name": "26939b8a-5431-436a-ac0c-0570fad63bc4"
            },
            {
              "name": "bef4453a-d7e5-47f0-aed1-8bdc55134330"
            },
            {
              "name": "aea49479-67da-4e4d-aa97-3d72de11a38c"
            },
            {
              "name": "92da6556-c9aa-43c4-82d5-113c24ec5e29"
            }
          ],
          "name": "25c0113e-ada8-4f84-a9bd-457fa6bc85ab"
        },
        {
          "children": [
            {
              "name": "c1437d2d-4a2f-4f2d-abc5-1efc943285db"
            },
            {
              "children": [
                {
                  "name": "43e3721d-1a23-4c79-899a-29cf83974b96"
                },
                {
                  "name": "9f568975-b996-4711-ab2e-eb8402e2fd1e"
                },
                {
                  "name": "ff8eb577-842a-49ea-9e27-e0a4033e7492"
                }
              ],
              "name": "bed27afa-0cab-4267-bcd0-caeabf319042"
            },
            {
              "name": "4925aa65-de9a-48d6-99ed-ce072362b51a"
            },
            {
              "children": [
                {
                  "name": "e06934d6-8a4f-4aa8-b7fd-209c275a3376"
                },
                {
                  "name": "f6df8c17-2a55-4f3a-916c-4e0c660678d6"
                }
              ],
              "name": "739e7831-d54d-48d5-b697-d828b6853da9"
            }
          ],
          "name": "0d6a3c1b-62e6-44e2-831a-5761b4bccee5"
        },
        {
          "children": [
            {
              "name": "b719d24f-ac2b-4b46-b9a6-8a27f63e51ba"
            },
            {
              "name": "43cece7c-9de2-4db0-8ef0-1cb922dcee8a"
            },
            {
              "name": "223eccd6-8a5a-49b8-89a3-2ba49b7620d7"
            },
            {
              "name": "7559f695-b15d-4e98-b0f7-edce94fe2413"
            },
            {
              "name": "99ef6507-da69-4dac-be30-14f05f0c7c7a"
            }
          ],
          "name": "87126600-88c0-49f8-a9c7-60bb7b89950d"
        },
        {
          "name": "90470785-077e-4309-9db2-e53de90e085d"
        },
        {
          "children": [
            {
              "children": [
                {
                  "name": "0c37815a-4250-488e-b324-362bdb8555c2"
                }
              ],
              "name": "6f40a66c-57ad-464d-8118-f0cb1b44b8ca"
            },
            {
              "children": [
                {
                  "name": "1af4ba9d-66d4-4c40-bced-34d5f18b0438"
                }
              ],
              "name": "ae958bc2-f022-4f07-b89c-efb57487a9af"
            }
          ],
          "name": "3212b422-9bda-4aa3-b4d7-5a35b1aa7163"
        },
        {
          "name": "21adffef-c1e0-409e-8a53-4d0970d1287f"
        },
        {
          "name": "78734559-1fa2-45d2-957d-a88b0b88c29c"
        },
        {
          "children": [
            {
              "name": "7321d0f9-fe3e-4b14-8098-d253f50e4466"
            },
            {
              "name": "2746b518-e03b-4b2d-974a-ddf9573e3a94"
            },
            {
              "name": "40a9b207-20d5-4c5c-bab4-9dd7d8a49981"
            },
            {
              "name": "43dd0121-eaed-4678-b716-3a5ee22c482e"
            }
          ],
          "name": "95c263e0-8851-4754-9dae-4c3944d131c2"
        },
        {
          "children": [
            {
              "name": "173f82e1-f99f-4bf0-b946-1b00a06b7b62"
            },
            {
              "children": [
                {
                  "name": "61534423-0c18-4c91-8f0c-c565f5c15b76"
                },
                {
                  "name": "98ca2ddf-a9b6-41c4-8885-288afa8db624"
                },
                {
                  "name": "eac75a35-7398-448a-8ea9-2ea84cd98f37"
                }
              ],
              "name": "4f91dc1a-9d23-4ff7-9c00-7b83c1dd7e1d"
            },
            {
              "name": "98a991c8-f0b3-42f3-a8bb-1761d21f0089"
            },
            {
              "children": [
                {
                  "name": "80935b8c-c934-4e83-b847-403ebbbe31a8"
                },
                {
                  "name": "5be278e0-08b6-43d0-8092-94aa4ff7000b"
                }
              ],
              "name": "174a4b7d-312e-44b1-bb7e-cf39f2acd0d0"
            }
          ],
          "name": "888e9f6e-0328-4d42-95ed-ee2ba72a4344"
        },
        {
          "children": [
            {
              "name": "aa320b8f-36d4-470a-b957-4c232f5da3e9"
            },
            {
              "name": "71a8cf96-0a06-4c71-9be7-c242a5e06ce6"
            },
            {
              "name": "440ddbd3-c83e-4268-8cda-060004cb467d"
            },
            {
              "name": "39eb4296-9c6d-4b3e-8d9e-b86b121320b9"
            },
            {
              "name": "406bc3ae-bd2b-4b92-8615-bf1b97472001"
            }
          ],
          "name": "a0eddd0c-8ee1-432b-a439-13c05e600e4f"
        },
        {
          "name": "344668b0-a5ba-476c-85cb-abf56821f76c"
        },
        {
          "children": [
            {
              "children": [
                {
                  "name": "8f62170c-76ad-4624-bf88-9ea2f20c5200"
                }
              ],
              "name": "ac891144-b81b-491b-8871-42be1cfda444"
            },
            {
              "children": [
                {
                  "name": "c22e56e9-fcad-4057-96c0-edbf231e5a3e"
                }
              ],
              "name": "33a3e5d8-c8da-4a0a-b915-295d0f561e26"
            }
          ],
          "name": "ce67919e-e686-4108-93f7-6147f377f3e0"
        },
        {
          "name": "0d7e4e76-e98b-449b-98f2-56c5ca6ebc2d"
        },
        {
          "name": "2eada1da-657d-4f7d-b46e-ed64c2c79049"
        },
        {
          "children": [
            {
              "name": "1d3bec9d-dfc1-4b5e-8d09-9585961f21d3"
            },
            {
              "name": "396563e7-7110-4b92-8aa5-0c860cb07ebc"
            },
            {
              "name": "f5d03998-af88-49aa-aca6-fbffe2f87ce0"
            },
            {
              "name": "990cd069-9f77-47d9-8c4b-d7f0c0e71f40"
            }
          ],
          "name": "b5c8c06c-d344-45f3-a301-67646215223f"
        },
        {
          "children": [
            {
              "name": "4e0e789a-24d0-436b-b187-0da1d8e463d2"
            },
            {
              "children": [
                {
                  "name": "32c6137f-27cd-468d-95ed-4e7b83efd722"
                },
                {
                  "name": "fc1bdae3-3910-4615-913c-2cf49f674f89"
                },
                {
                  "name": "d9310e85-f3b3-4f86-adec-f6d894e9c70e"
                }
              ],
              "name": "16237535-b160-4015-9773-b2eeaca8e26b"
            },
            {
              "name": "27aca4ea-f0af-468a-b5d4-ea543c8ff9c0"
            },
            {
              "children": [
                {
                  "name": "06f84c5d-2be6-4bc5-b410-99b7a1731fe9"
                },
                {
                  "name": "58d3632b-116b-473f-9172-3ce0b95e2545"
                }
              ],
              "name": "51e664b6-bda5-4f34-b458-8571c1baa4e6"
            }
          ],
          "name": "d6b3ebc9-077a-44ad-9f9d-5bc0fd5218dd"
        },
        {
          "children": [
            {
              "name": "302b3116-af76-46ef-9b5d-2f665848855b"
            },
            {
              "name": "db341666-2f06-42bc-bef7-2c34f2668ed3"
            },
            {
              "name": "fb5e580f-97a3-41a0-9580-02587a4de7f7"
            },
            {
              "name": "38aac04e-fd7d-4f6f-a835-3be311acf62c"
            },
            {
              "name": "f680c2fe-1562-403f-9715-a46f655c858f"
            }
          ],
          "name": "79ccdd76-773d-4fca-9dd2-3bae1e89d66d"
        },
        {
          "name": "c7b2e0bd-0611-409e-b700-348bbd9b067b"
        },
        {
          "children": [
            {
              "children": [
                {
                  "name": "a89db70f-9825-46f7-8cd9-6f6d0abaaf7e"
                }
              ],
              "name": "b6800f61-e9b9-4f10-a3a1-b71991a6684b"
            },
            {
              "children": [
                {
                  "name": "18670576-f00a-4158-a3d0-0c40aa9cab0a"
                }
              ],
              "name": "dbbaf604-5569-4930-8d5b-140512acccd0"
            }
          ],
          "name": "637aa24b-ce2c-4149-b832-914cefd40e6f"
        },
        {
          "name": "254256ba-0ea8-4c01-b5d3-d935ecfa6996"
        },
        {
          "name": "ee8fb0b8-f9d6-4b09-80dc-557182440d4a"
        },
        {
          "children": [
            {
              "name": "b9eee029-ad64-4d06-a8d8-9dd195679b15"
            },
            {
              "name": "c2c494a6-6546-4152-b924-d38913ef5be0"
            },
            {
              "name": "755247f3-7f09-4561-b64b-0fc74ee893cb"
            },
            {
              "name": "197600ad-49cc-4a8e-b362-5e2906c01f3b"
            }
          ],
          "name": "fa06576d-33f0-4ccd-b1cb-d42cb40b36dc"
        },
        {
          "children": [
            {
              "name": "37528fde-9c4e-4ab3-b36b-1b363d6a1dfe"
            },
            {
              "children": [
                {
                  "name": "0d433844-7e0e-43e1-a340-2b7c99b66e39"
                },
                {
                  "name": "47dfa998-98fe-401d-abc5-52021a615a7f"
                },
                {
                  "name": "877a2e07-56b2-41a1-822e-8efa3ace8013"
                }
              ],
              "name": "750bc24d-111e-41ae-8bfd-4553cc507f4e"
            },
            {
              "name": "5566d5c2-7490-467d-a225-f79e07ae6441"
            },
            {
              "children": [
                {
                  "name": "24517360-878a-48bf-9ccc-7459323f3235"
                },
                {
                  "name": "bb47d4d7-b9b7-4713-9371-83b8cd137190"
                }
              ],
              "name": "9d14cf35-c00e-4628-968b-f581cb079e19"
            }
          ],
          "name": "775104be-5c72-464e-a9de-8bcc9adab406"
        },
        {
          "children": [
            {
              "name": "930fc1f4-deea-4609-9cf8-0618705fcdd0"
            },
            {
              "name": "70be07ab-9540-462b-9da7-2efe468677bf"
            },
            {
              "name": "26f08cf1-1d6a-47b2-ba56-aeb8b311e274"
            },
            {
              "name": "a3634224-6d3c-44e2-be7b-a6791d51d0c6"
            },
            {
              "name": "db2cdcc5-61ff-404c-806a-7ec3e7ee0874"
            }
          ],
          "name": "482a8995-1574-4b2c-9e0d-75630a8c3ab0"
        },
        {
          "name": "8bddd8ef-6a9d-4045-9ba4-58f81f911859"
        },
        {
          "children": [
            {
              "children": [
                {
                  "name": "f000911a-8db5-45e0-948c-800a120ab6f9"
                }
              ],
              "name": "7146d26a-13f4-41ad-b283-1c96d672eef4"
            },
            {
              "children": [
                {
                  "name": "4e7e3e41-4fb1-40bc-a850-76f1302618a0"
                }
              ],
              "name": "52fe5b33-5e17-4470-b4a6-51ec68c288da"
            }
          ],
          "name": "3521d752-1289-43ba-8262-9326fe6a37a1"
        },
        {
          "name": "daab3794-bcdc-43bf-b6d1-6598125aa2b1"
        },
        {
          "name": "62afdb17-1959-449d-a920-8df8bd074067"
        },
        {
          "children": [
            {
              "name": "f6d1751b-2e00-4ef6-96ac-43cf1b733159"
            },
            {
              "name": "66b3a92d-8400-4114-92d1-91e4b8b68733"
            },
            {
              "name": "85b19643-3f2e-4a67-9df2-42bf315078bc"
            },
            {
              "name": "7389a7f0-2fa6-48d1-9fe8-26703d44e14f"
            }
          ],
          "name": "96341e8e-a546-4660-9990-a3da9d9c5e72"
        },
        {
          "children": [
            {
              "name": "715fef18-6084-4292-88ae-07e8287ad10f"
            },
            {
              "children": [
                {
                  "name": "12086a64-10d0-43bc-a2cf-c835407014a9"
                },
                {
                  "name": "2113f0cc-5934-4e22-a895-352dfa0d7bde"
                },
                {
                  "name": "e886dcc6-9661-4d55-9a26-7e9076f3af28"
                }
              ],
              "name": "911c3f73-4483-41ea-889a-b9e90a28a2fd"
            },
            {
              "name": "0fa01ba0-2140-4296-8922-7bf2b31b5a39"
            },
            {
              "children": [
                {
                  "name": "f3a9e1b3-8cc1-4b88-8f17-3cfb7db3702d"
                },
                {
                  "name": "99e46156-2455-4c1d-8b44-9cf00e250c43"
                }
              ],
              "name": "6c8558d5-8c6e-4979-87f8-026114cd1174"
            }
          ],
          "name": "2f80b5f4-58f3-40a7-bc2f-9dc3cc337c8f"
        },
        {
          "children": [
            {
              "name": "eea72fef-7b69-4599-ba16-a8de485d2db4"
            },
            {
              "name": "914e429f-637e-4e81-85fe-fb891e752d4f"
            },
            {
              "name": "b3a19317-fc37-49d3-9612-2b59cbc5596f"
            },
            {
              "name": "9526765e-e0e1-4aa7-b160-b21aaf9ba1e3"
            },
            {
              "name": "1fe1b75c-11d2-4358-ade1-36bcf678e567"
            }
          ],
          "name": "1869550e-ea2d-467b-8ece-0ad9123bebd5"
        },
        {
          "name": "3d3cf192-63f4-4bea-83a7-2cadd186c56f"
        },
        {
          "children": [
            {
              "children": [
                {
                  "name": "17f9ea47-21a5-46b0-ae22-e81e85578283"
                }
              ],
              "name": "e208a76d-2048-4a6f-8781-1ae9ba2937f1"
            },
            {
              "children": [
                {
                  "name": "82edbd65-fd74-4530-b5b0-b25eb616d57c"
                }
              ],
              "name": "3dcf1371-bc35-479e-9f85-5ddb896f8d29"
            }
          ],
          "name": "faea7075-cc15-41b9-94c1-bb3a45c4f298"
        },
        {
          "name": "e6a66c53-72df-4c64-9a2b-c67603c9cbaf"
        },
        {
          "name": "cdc63b7f-3cac-458b-be0d-92ee561e3056"
        },
        {
          "children": [
            {
              "name": "5409c65f-9663-4d8b-979e-ad3c0d3a32f0"
            },
            {
              "name": "7bddf3a9-03da-48c4-839c-2f9ca474eca2"
            },
            {
              "name": "195a035d-959b-4d67-add3-4c69076d41aa"
            },
            {
              "name": "7b478e43-b9e0-4b55-a7c9-c0035a71665c"
            }
          ],
          "name": "0bd1f7b6-23cb-48d1-b9b2-5b02e733d5a5"
        },
        {
          "children": [
            {
              "name": "fdf28c4b-1540-4f47-9cd5-2746f99d51bd"
            },
            {
              "children": [
                {
                  "name": "f4e79c9d-bc99-4250-ae19-ac8bb1ae9d81"
                },
                {
                  "name": "0cbf0199-15e2-4b11-84da-2089210edf56"
                },
                {
                  "name": "be419edc-8c23-49f3-8a8a-7a983b5ffafe"
                }
              ],
              "name": "40f535f7-5493-458b-b9f5-4ff47d71aa20"
            },
            {
              "name": "3c81213e-dae0-42bc-a98a-4624d057a0b8"
            },
            {
              "children": [
                {
                  "name": "3c887fbd-9419-42f2-80dd-29e0f6e2fbbd"
                },
                {
                  "name": "3c484c62-cd00-4326-8e2e-e7c4504a0a26"
                }
              ],
              "name": "ef5f981b-7f78-45bd-b7cb-57582a6194e3"
            }
          ],
          "name": "c10f83cb-c292-413c-8fae-016af562f9d0"
        },
        {
          "children": [
            {
              "name": "2924ad71-9940-4b6f-83ff-471a897db56f"
            },
            {
              "name": "3f5f9f69-9b35-4dad-8db8-d2524e3b0b2b"
            },
            {
              "name": "869dc573-436e-4b31-999e-510090c38c23"
            },
            {
              "name": "56206ac7-bad5-44e2-b723-c6d948bb7172"
            },
            {
              "name": "0897b78a-37ed-4576-bb11-4b790ad5de03"
            }
          ],
          "name": "408e50f7-a132-4e2b-89d7-b3e3ad26220b"
        },
        {
          "name": "288c6d4d-34ab-40ea-b2b0-b08909e821ef"
        },
        {
          "children": [
            {
              "children": [
                {
                  "name": "62210c8f-d0ee-4045-9006-b618c26e1283"
                }
              ],
              "name": "521ce93c-79df-486e-9986-2d5db618d293"
            },
            {
              "children": [
                {
                  "name": "e40fbb77-15d5-4db2-9fea-6851d830e460"
                }
              ],
              "name": "d8cc8a34-33e3-48ba-80c0-0215ff8b2740"
            }
          ],
          "name": "645b6edf-8c6b-405d-98c0-8225ddc9d3f4"
        },
        {
          "name": "c647df30-ad25-4bd8-9dbf-b56e50804c50"
        },
        {
          "name": "a3b6d398-2cf4-495d-97c8-2770f8523500"
        },
        {
          "children": [
            {
              "name": "f4d18697-f1d3-4ab8-9ccf-7e1587d74d90"
            },
            {
              "name": "a8c8248b-ad76-48c5-9de4-3fb7aa2cde48"
            },
            {
              "name": "7cf46d98-c3c3-4cb9-b7fc-91fd0e8b5ae8"
            },
            {
              "name": "79903f24-e8b4-4649-b3af-24531a998f20"
            }
          ],
          "name": "a4a1fdf4-9951-48f2-a606-e27563fadd94"
        },
        {
          "children": [
            {
              "name": "8b654047-6b3b-471a-ae06-8875776b2093"
            },
            {
              "children": [
                {
                  "name": "3635b209-66f1-4f70-bb72-3f8205ee42eb"
                },
                {
                  "name": "deaa9cd5-b917-414b-9d3d-09f9e045950b"
                },
                {
                  "name": "895a0593-a585-40cc-b52a-14aee46623cd"
                }
              ],
              "name": "10ac77c2-fe3c-44a1-bfe9-cea224a347a4"
            },
            {
              "name": "554bd811-1d1a-40e3-8c4c-27c0caf5ff78"
            },
            {
              "children": [
                {
                  "name": "281842a3-517f-4698-9279-bbefce5521b2"
                },
                {
                  "name": "2abc3b35-f8b9-429a-b033-8bd7679854fe"
                }
              ],
              "name": "02e00675-9667-403c-ad47-28d8b32016f9"
            }
          ],
          "name": "fcc6409b-6685-4d94-a483-3c9c3c9e8a27"
        },
        {
          "children": [
            {
              "name": "e89b6d27-a3f4-4884-948e-2e42c8fdf448"
            },
            {
              "name": "19080ffc-8dc9-4b77-91fb-0b3f60568892"
            },
            {
              "name": "d11dfdb7-96cf-4f18-8980-bf50575f01f0"
            },
            {
              "name": "16d2456c-a7da-46ae-bbca-3bcbb8f45450"
            },
            {
              "name": "7048289f-c4ed-47af-bc14-1df9550d6969"
            }
          ],
          "name": "3929b3e5-72da-4b1c-a113-01ef09ffe47b"
        },
        {
          "name": "6cdb46f1-9b0b-437d-921b-f73aaf5ff88f"
        },
        {
          "children": [
            {
              "children": [
                {
                  "name": "08e4cc85-dd9e-4da8-bbec-c0f4be017cb9"
                }
              ],
              "name": "d66cb951-3a78-4fc9-a027-0dd713b289d6"
            },
            {
              "children": [
                {
                  "name": "ac90595c-ac77-4755-a6d4-e1e8e5047a4a"
                }
              ],
              "name": "1a11bc1f-fd85-48b8-825c-60fed52d245e"
            }
          ],
          "name": "884f8472-dc37-42e3-8d7d-06c6e6caa795"
        },
        {
          "name": "586dd9cd-632f-477c-80df-2c435859031e"
        },
        {
          "name": "28205c35-cf24-43a9-99ea-3eef6c9f81e7"
        },
        {
          "children": [
            {
              "name": "62130e7b-3b8d-4430-98c3-9935f0b1a5ad"
            },
            {
              "name": "82a0c6fd-e797-4872-a369-bd35d54bcbc2"
            },
            {
              "name": "27006dfc-7f15-4875-93e4-0b247b4742f0"
            },
            {
              "name": "a60a0346-e574-417a-bf22-38ba98d5586e"
            }
          ],
          "name": "cd009afa-8647-493a-812e-341999a346e5"
        },
        {
          "children": [
            {
              "name": "25262998-2cdb-449d-95f1-eab0a3b62a9e"
            },
            {
              "children": [
                {
                  "name": "059f2b2b-5313-4584-b423-81f4fb5bb33b"
                },
                {
                  "name": "02aa425e-26e6-44a5-aac1-a79f4738c2ac"
                },
                {
                  "name": "3da8ba16-ac60-4341-8f70-57dfea838612"
                }
              ],
              "name": "13142dcb-70bc-4907-a0fc-06c1ad0b945e"
            },
            {
              "name": "5861d7b1-7e3e-40af-b684-7304aa1b5b0f"
            },
            {
              "children": [
                {
                  "name": "78263e12-401a-4438-b6d4-d7c887852f26"
                },
                {
                  "name": "ef972236-b57d-42c8-b2cc-23f6cee3171b"
                }
              ],
              "name": "a0888a48-6a05-4b67-8680-4f329e165f3c"
            }
          ],
          "name": "21df60c0-291d-41b1-b5dc-75c44c2b16d1"
        },
        {
          "children": [
            {
              "name": "108a00d3-0b70-4e3a-b217-19454df7e694"
            },
            {
              "name": "579818e2-352d-4ae4-9361-d3da44c8dbb2"
            },
            {
              "name": "f098ab05-aad4-45ed-8a2a-717b9ef31047"
            },
            {
              "name": "bbd63f9f-6b4d-46cd-8781-47e662602066"
            },
            {
              "name": "13a8f31e-5fa4-47ee-ba8e-2ce94d3ab7ea"
            }
          ],
          "name": "5caf645b-2ab4-438c-b588-89b78fd297d1"
        },
        {
          "name": "12f0d7f7-25d6-4c5a-8d43-6402c7ca6331"
        },
        {
          "children": [
            {
              "children": [
                {
                  "name": "32bf33bf-e08f-47dc-a881-8a00362d48c7"
                }
              ],
              "name": "9bc50de1-6729-40e1-9564-7d9f88f24a99"
            },
            {
              "children": [
                {
                  "name": "d39fb090-8ae4-4340-809d-2e2a84e30029"
                }
              ],
              "name": "6ecbca6c-a2e4-4610-b1fb-79a24d199754"
            }
          ],
          "name": "9d24f4fd-92fe-4003-9b74-5e720fa49e8e"
        },
        {
          "name": "03b10ae9-8a74-41b3-9403-37616a584437"
        },
        {
          "name": "3468163e-079f-433f-8af5-77a52cd12a0b"
        },
        {
          "children": [
            {
              "name": "8c401b6e-ff18-44fd-8a74-9899f0f38f23"
            },
            {
              "name": "2c596cb9-3d6c-4545-ab4f-9d793b2e8855"
            },
            {
              "name": "834e5714-1c64-4a2f-b608-9b5cb56aabf3"
            },
            {
              "name": "a1301875-b2c5-4e18-b1b9-22626a03d762"
            }
          ],
          "name": "e099eb57-a489-4590-8fe3-30af300912f2"
        },
        {
          "children": [
            {
              "name": "92eb6904-9de1-4b41-a104-0300b2a0fca2"
            },
            {
              "children": [
                {
                  "name": "6e9c17d2-0ab7-46d4-95f1-3703075f2edf"
                },
                {
                  "name": "ddd9c357-187e-4e64-85ff-c3ea89e7a8be"
                },
                {
                  "name": "cda7f373-963c-46e4-b074-4bdb77a1c803"
                }
              ],
              "name": "211abf48-f0aa-4f9c-8c28-0ffc72336b4b"
            },
            {
              "name": "2760efad-a355-4def-95c5-0e599de5b50a"
            },
            {
              "children": [
                {
                  "name": "f0e83abc-8c34-45f6-9f42-5c932f82164f"
                },
                {
                  "name": "beeae80c-99b8-4451-85b0-34fb62bb8474"
                }
              ],
              "name": "3cf2d2cd-907b-4f83-a34b-f0d9896852d5"
            }
          ],
          "name": "5e69cb3e-51ed-4dde-9c74-3f61c3ce0ca9"
        },
        {
          "children": [
            {
              "name": "d4378dd6-f6d3-4201-9658-42bf4c83efbc"
            },
            {
              "name": "1c7335d8-28ac-43d2-8059-82786cdaa95d"
            },
            {
              "name": "981adfa1-d111-49dd-96c7-95f2b78db4bb"
            },
            {
              "name": "b7cbdbbc-6d31-43fe-baf9-1ba87536c9a2"
            },
            {
              "name": "b4b9222c-588c-4d62-8594-3cdebcc09dcc"
            }
          ],
          "name": "a7d0ec5d-e65e-402b-84bf-2077e97481ce"
        },
        {
          "name": "d1f1c749-741a-414d-ab23-95834a43d506"
        },
        {
          "children": [
            {
              "children": [
                {
                  "name": "8c62c50c-b517-4d37-b91f-4e17a502e3c3"
                }
              ],
              "name": "f0f0fd16-1692-48a6-9c22-69aa68a598f1"
            },
            {
              "children": [
                {
                  "name": "08bd2d1a-be7e-4e10-b77c-aa83c80d47d8"
                }
              ],
              "name": "725a7d82-76bc-418f-ad49-f1c31a096bc0"
            }
          ],
          "name": "3a1bc776-fa11-419c-bc8e-3dcccd11f654"
        },
        {
          "name": "0e0811bf-d1de-4248-a23d-68b632337053"
        },
        {
          "name": "f25e1f94-561d-4575-92fd-0bb6e2c1bbf8"
        },
        {
          "children": [
            {
              "name": "dc1ee656-efd8-426a-9ab4-ea0027edc891"
            },
            {
              "name": "700ff5b9-4298-455f-9252-72b83ff0a997"
            },
            {
              "name": "f90e1b15-d1f9-4438-8c48-c2b0b907f984"
            },
            {
              "name": "80cd633b-756c-40a9-937a-11a011bf018e"
            }
          ],
          "name": "2ee447d9-1cbf-443c-b181-0d63ff0664b5"
        },
        {
          "children": [
            {
              "name": "adfdf0f1-8dd4-458f-a798-2f33380dfeb1"
            },
            {
              "children": [
                {
                  "name": "b4612a46-6784-4212-89c8-b5bcea79358f"
                },
                {
                  "name": "3c71b8a7-5836-4e50-b321-db71fe1bb49c"
                },
                {
                  "name": "afb8fd17-8b62-43b2-888a-a419f3480d7a"
                }
              ],
              "name": "466cf472-01c0-43b4-8601-78147e2a8076"
            },
            {
              "name": "b03d3049-512e-4eb0-9545-7a0ea6979485"
            },
            {
              "children": [
                {
                  "name": "b0695df5-4ad4-42bf-8a86-d0dfaf5f6ebb"
                },
                {
                  "name": "3e50cf6a-b388-4574-9aa5-48222e6fdb8b"
                }
              ],
              "name": "bd90c841-250a-417a-9fbe-ecb92315498f"
            }
          ],
          "name": "5892672f-53cd-448e-9c29-be1e666d415b"
        },
        {
          "children": [
            {
              "name": "66f3216d-870b-4a54-b6b7-5b79ed943ca4"
            },
            {
              "name": "8bac1f78-71bd-4d52-9267-6f907f501524"
            },
            {
              "name": "ed2f73b9-11b6-4c08-89b6-ad6ad8713de1"
            },
            {
              "name": "967cda07-2c2d-409e-8030-f0fce7d7a7d7"
            },
            {
              "name": "d447b8b5-51ce-44a9-aad9-a159753f4e1a"
            }
          ],
          "name": "7062c146-a703-47a9-8b77-1639aa7821cb"
        },
        {
          "name": "ac43d206-1262-45f6-bfe1-9a5d58800d26"
        },
        {
          "children": [
            {
              "children": [
                {
                  "name": "2076a275-0b53-43fe-82a8-7bc675d28cb2"
                }
              ],
              "name": "9c6ad83d-8d2b-4b74-8939-113281218954"
            },
            {
              "children": [
                {
                  "name": "40444042-6deb-4152-b731-2a37660464a5"
                }
              ],
              "name": "deaf381d-17fd-453f-8b42-df3c6f367ad5"
            }
          ],
          "name": "de6261d9-169a-4b6c-a464-267615e094fc"
        },
        {
          "name": "7bfc3e4a-0d8a-4136-9160-127f95a0ab8c"
        },
        {
          "name": "70047e7e-e5fc-426a-a12a-404884e7d906"
        },
        {
          "children": [
            {
              "name": "d977c4df-fcaa-4353-be2b-df1c6987653c"
            },
            {
              "name": "3a0fe4ad-16fc-42d7-94d4-2ef49c1d2fcd"
            },
            {
              "name": "18c993cc-75f9-47ad-858d-d8e625547a4a"
            },
            {
              "name": "72680df9-5261-47e2-8557-3dcc4a5a2bb6"
            }
          ],
          "name": "b40cdc0a-96d6-4c56-8ae9-3abdaca7a32e"
        },
        {
          "children": [
            {
              "name": "c1a83b7f-0cf2-4324-be65-84360ea8f0c1"
            },
            {
              "children": [
                {
                  "name": "4d9012ff-2026-4b64-bd7d-ec505e29f2f5"
                },
                {
                  "name": "8682b32e-064e-4f2b-917f-8f2e4f8ab450"
                },
                {
                  "name": "0da6cad0-e0ed-42e7-a931-55c30b9d882c"
                }
              ],
              "name": "8160b39b-9420-41e9-a05e-e957eb67132e"
            },
            {
              "name": "059a5786-35dd-46c6-a343-ccfcc9c5d87e"
            },
            {
              "children": [
                {
                  "name": "61e083d8-f617-4b87-887b-024bfb27506b"
                },
                {
                  "name": "3e0477c1-6e06-48ad-a7e8-1103ca76f3b9"
                }
              ],
              "name": "7eb468e3-22bc-4eb4-85dc-6659a5a08e2c"
            }
          ],
          "name": "77f99894-0fd2-4b89-b8fb-9479a84ca148"
        },
        {
          "children": [
            {
              "name": "d1fe8f0d-b35e-4fdd-be75-8179046806c8"
            },
            {
              "name": "e12173cf-3975-456e-969f-2d8d30e986b3"
            },
            {
              "name": "cf83aa8c-12c1-4ea4-a0cb-60ccd5c7cb27"
            },
            {
              "name": "d224af56-c027-47f4-92bf-39b18571c062"
            },
            {
              "name": "2b5c5406-2b3e-4057-afc2-20aaa31d1b55"
            }
          ],
          "name": "4dddd5cd-454c-44a9-981d-ff5c2614edde"
        },
        {
          "name": "b5be589b-300b-4a53-88ac-c56ce957fc64"
        },
        {
          "children": [
            {
              "children": [
                {
                  "name": "2c825b42-7650-4066-885e-04b891de1472"
                }
              ],
              "name": "e6961e36-8dbf-4160-a492-4155ebb0c584"
            },
            {
              "children": [
                {
                  "name": "917931b4-191b-4e57-87fc-946bba4659a9"
                }
              ],
              "name": "40babf42-0091-47da-a5f2-3ffb53d3ca1c"
            }
          ],
          "name": "61ac0d8f-487a-4f82-b93b-915b10160090"
        },
        {
          "name": "e024d5c9-69ca-417f-bfe8-e1ad72188809"
        },
        {
          "name": "063c826b-391a-4f88-8cac-f3e739e0972d"
        },
        {
          "children": [
            {
              "name": "d005c08a-4762-4d82-94f4-220b36a0cd2e"
            },
            {
              "name": "22463663-36b4-46bf-9762-a305bfaa7507"
            },
            {
              "name": "0afcddc6-230c-4d8c-bebf-f1a6b6c3482b"
            },
            {
              "name": "4ab51133-2868-48c7-b1d9-dfdbb737f79e"
            }
          ],
          "name": "baf279d3-e996-4ea9-876e-776e3c003b18"
        },
        {
          "children": [
            {
              "name": "d3edcd68-2276-420c-b940-5a0ecad35fd1"
            },
            {
              "children": [
                {
                  "name": "e1df6dd6-9f1b-40dc-b2f0-f6bdc7dd4389"
                },
                {
                  "name": "c1180738-4663-459f-9c86-206bd8b6f7d4"
                },
                {
                  "name": "4b2e3827-3a01-4210-9f97-c277f9ad772b"
                }
              ],
              "name": "92372db0-2a71-44e4-a047-3e8981f76324"
            },
            {
              "name": "a119cc33-dd98-498a-854c-f31cb92c5373"
            },
            {
              "children": [
                {
                  "name": "da0e5e67-9bb8-48dd-8dfc-c273b04cf332"
                },
                {
                  "name": "89c90ee6-697c-4504-9599-0fca939c2a6b"
                }
              ],
              "name": "79c362a1-075e-4f6a-89d1-0b62db378425"
            }
          ],
          "name": "00865986-0420-4145-96a2-8c797fd56eff"
        },
        {
          "children": [
            {
              "name": "0f30e9aa-8d04-4e6e-85fb-d1fd01b6a1ea"
            },
            {
              "name": "a5078e10-5a3b-459b-93b9-ca5456368861"
            },
            {
              "name": "b5070a7b-06b9-42ef-b03b-1761daaa974e"
            },
            {
              "name": "a85a961c-7e7e-484a-95ec-94e6c2430cea"
            },
            {
              "name": "fb4afa64-8cd7-48ea-ba30-e8851b281afd"
            }
          ],
          "name": "baf8b4c5-77e5-4938-8c49-e864cc7ffab2"
        },
        {
          "name": "35b834cf-b883-48a1-b51d-40bdd7bbf1be"
        },
        {
          "children": [
            {
              "children": [
                {
                  "name": "de6179ce-f067-4dd4-b79d-e9dcf4812c54"
                }
              ],
              "name": "62ff545e-14f4-4237-8a79-bd47c44a7fbf"
            },
            {
              "children": [
                {
                  "name": "153a7074-638f-4d20-9833-72ce80fa94b1"
                }
              ],
              "name": "5281dc20-c563-4d6d-a3be-987c2c195f71"
            }
          ],
          "name": "0c675113-e896-4652-b2ee-6e6748ff7e2d"
        },
        {
          "name": "1de9bcfd-d95c-4f20-b8f2-6e29a83807c9"
        },
        {
          "name": "f378262f-b9cb-462e-8cfd-232c8b799727"
        },
        {
          "children": [
            {
              "name": "14b70fa7-717c-4078-a6c3-d7c2cf87771c"
            },
            {
              "name": "dc9a5c98-0ffe-410d-9340-d2c5135e4ad6"
            },
            {
              "name": "c70c8edb-1936-4678-8b62-989447487f20"
            },
            {
              "name": "027fe671-4d23-4395-b79b-aac997681643"
            }
          ],
          "name": "b767e2ef-ccfc-4afb-ae10-05a303798eaa"
        },
        {
          "children": [
            {
              "name": "8f6029cc-c61c-4480-be9b-e310a2a20f50"
            },
            {
              "children": [
                {
                  "name": "65247f88-5c5e-4aa7-81ad-2c3a42963362"
                },
                {
                  "name": "0d044549-a35c-483e-b319-3758676bffc6"
                },
                {
                  "name": "46ac5ab4-72d4-4f8a-8998-a8cc38f836f8"
                }
              ],
              "name": "2229d46f-1b90-42bf-8d47-008d292698e8"
            },
            {
              "name": "c86c25fa-0897-4030-abd9-6d82327cf012"
            },
            {
              "children": [
                {
                  "name": "18e66310-1639-408b-9a68-e6236d41ed43"
                },
                {
                  "name": "5ebb9f68-bc4c-4f61-994f-0c8f46f5634c"
                }
              ],
              "name": "540c5224-45fe-458d-8bee-ffe463dd4fba"
            }
          ],
          "name": "d093727f-d249-4de8-a722-3b1b7d7a5f55"
        },
        {
          "children": [
            {
              "name": "afe6861f-7471-4ad7-a66b-078f124d1680"
            },
            {
              "name": "a53dc206-670b-498b-8c2b-95282221552a"
            },
            {
              "name": "7eb255ba-3e42-4bae-8785-2a199e4d12e7"
            },
            {
              "name": "3d9480cf-a38d-4d3b-8bfd-21abb2fd4ef6"
            },
            {
              "name": "3d373db9-f5f5-4465-9aba-ae8ec8b56a33"
            }
          ],
          "name": "3b7aa0c9-fa05-43a8-ac5d-275c3bc93bac"
        },
        {
          "name": "9b29986c-b675-4a14-ad37-c7cf3cf0ade8"
        },
        {
          "children": [
            {
              "children": [
                {
                  "name": "18e3998f-e808-4a89-b340-9bb1d750a55a"
                }
              ],
              "name": "816fca3b-437b-4546-9a86-b727ccf1cd0a"
            },
            {
              "children": [
                {
                  "name": "6889ff0d-2128-412b-a5ba-6cd842ae625e"
                }
              ],
              "name": "40da3eff-87ff-4545-9bbc-3adfb1c176e1"
            }
          ],
          "name": "f0cdaabc-61d2-4601-ab2e-759a18abaabc"
        },
        {
          "name": "6cb17f88-59b5-4fb7-9ef6-f9e1387b48f0"
        },
        {
          "name": "4e55bd94-53a4-45ad-a603-e79f4f6d3345"
        },
        {
          "children": [
            {
              "name": "4b767710-50ce-4c0d-a8a2-d9b9bd0b553e"
            },
            {
              "name": "b69dcb92-552d-428b-9349-2e4b77a14d55"
            },
            {
              "name": "fb74d04c-62a0-4adf-bf1a-82538f1774e9"
            },
            {
              "name": "5bd9ba31-748c-464a-9654-02375d5e1794"
            }
          ],
          "name": "da4f0d2b-39ec-4fe6-a252-c2c24d16ed1e"
        },
        {
          "children": [
            {
              "name": "edb00cc2-d3ef-4eca-9509-cf888019024a"
            },
            {
              "children": [
                {
                  "name": "b64e35bd-521a-4692-9d85-ab44896acd66"
                },
                {
                  "name": "5d9c4a55-3280-4ea8-a797-9548e2a668e1"
                },
                {
                  "name": "e7cfda7d-5ec7-4425-89cb-6bd695ae6929"
                }
              ],
              "name": "477bd4b0-832d-4dba-8071-37ec986d9906"
            },
            {
              "name": "9ad58b60-c539-499d-9e9b-2c6986b1ab1f"
            },
            {
              "children": [
                {
                  "name": "cfcfafc1-e5b2-49c8-8cbb-efb3e01cff9a"
                },
                {
                  "name": "c0085834-ef08-45bc-afa3-e8364183d6ac"
                }
              ],
              "name": "f344b9e9-4b0f-4377-946a-3be5badcfe34"
            }
          ],
          "name": "5132ee61-b7c2-41dd-b4ee-5286b8df3f45"
        },
        {
          "children": [
            {
              "name": "0d4b4fdb-e851-44c8-afe2-92c495ea534d"
            },
            {
              "name": "77660f39-aab6-47d6-aaf8-fc14d96bdeb0"
            },
            {
              "name": "edf486b9-2ea2-4161-84fa-f321b1a4f488"
            },
            {
              "name": "b2271db1-759f-4b13-becc-53a171e31c2b"
            },
            {
              "name": "de594431-9c68-4ba7-9a82-f4b650c12a15"
            }
          ],
          "name": "cd5486b2-75f6-4486-b88e-b115e671d3e7"
        },
        {
          "name": "8dd387f8-d1f1-400d-9c2d-212e5719c386"
        },
        {
          "children": [
            {
              "children": [
                {
                  "name": "03d3667d-edb9-45f4-a496-c80131a95f63"
                }
              ],
              "name": "1c042942-9178-4ca3-a64f-18a588cffefe"
            },
            {
              "children": [
                {
                  "name": "4664b149-4f17-446f-a466-e2c0de3aac54"
                }
              ],
              "name": "8c062ea4-f9db-4e72-991d-e0ae0cdf6d71"
            }
          ],
          "name": "b60c6ff0-8eb4-436c-be2b-b925dfcce87b"
        },
        {
          "name": "90b719a2-bdc2-40ed-ac2d-a92243deb14f"
        },
        {
          "name": "68db2ee4-49b0-4200-a710-14f1d583ddba"
        },
        {
          "children": [
            {
              "name": "d615d829-58a0-4d27-8e2a-d1e27e1dddc9"
            },
            {
              "name": "5d338c20-35c4-4811-8549-ac3c336919b8"
            },
            {
              "name": "61e0e893-b97f-40ea-960f-62100759e483"
            },
            {
              "name": "6e445a6a-376e-4e1a-b041-16f131049b7e"
            }
          ],
          "name": "e6c275f2-f413-40c9-9819-2a63ce364f75"
        },
        {
          "children": [
            {
              "name": "8df41f2d-bc8d-4f8b-8bee-c4b3880c0980"
            },
            {
              "children": [
                {
                  "name": "6a8395f4-e57e-4ea4-9638-6d871ba1e97d"
                },
                {
                  "name": "6f129d5f-95cc-497a-a7ef-adab9d09d42f"
                },
                {
                  "name": "73d0ae76-1928-43af-aac1-0900c2caa08e"
                }
              ],
              "name": "10d3b960-e9fa-47bb-b384-5e48aaadd185"
            },
            {
              "name": "f8ced10b-b608-458e-b158-2a0e74f4858f"
            },
            {
              "children": [
                {
                  "name": "537584ed-f11b-45a7-b394-e140f5e68c62"
                },
                {
                  "name": "291541b0-5720-4bd4-a2da-26d099af20ee"
                }
              ],
              "name": "9914725c-d539-45bf-9c6b-a8a5cca4ea12"
            }
          ],
          "name": "aad91843-7606-431f-978f-aa2e52969917"
        },
        {
          "children": [
            {
              "name": "c22123e9-281b-4d3c-9caf-46deb354702f"
            },
            {
              "name": "7cc957a7-da46-4558-b9cd-feb01f97b195"
            },
            {
              "name": "e993d0e6-134d-4499-8ca1-9761f049ad40"
            },
            {
              "name": "695a3b0c-724e-4857-adef-af5602ca9d2f"
            },
            {
              "name": "4b6824b1-b559-485a-a1cd-c2140dc44d1a"
            }
          ],
          "name": "7f5a42c6-044a-451e-8a48-ba15243445bb"
        }
      ],
      "name": "d192dc3d-b6e0-41c1-807b-8bbaad80d4f9"
    }
  ],
  "name": "batch09_bus"
}