<?xml version="1.0" encoding="UTF-8" standalone="no"?>
<!DOCTYPE svg PUBLIC "-//W3C//DTD SVG 1.1//EN"
 "http://www.w3.org/Graphics/SVG/1.1/DTD/svg11.dtd">
<!-- Generated by graphviz version 2.44.1 (20200629.0800)
 -->
<!-- Title: G Pages: 1 -->
<svg width="206pt" height="764pt"
 viewBox="0.00 0.00 205.50 764.00" xmlns="http://www.w3.org/2000/svg" xmlns:xlink="http://www.w3.org/1999/xlink">
<g id="graph0" class="graph" transform="scale(1 1) rotate(0) translate(4 760)">
<title>G</title>
<!-- startevent -->
<g id="node1" class="node">
<title>startevent</title>
<ellipse fill="none" stroke="black" cx="169.5" cy="-738" rx="27" ry="18"/>
<text text-anchor="middle" x="169.5" y="-734.3" font-family="Times New Roman,serif" font-size="14.00">start</text>
</g>
<!-- tau_1 -->
<g id="node5" class="node">
<title>tau_1</title>
<polygon fill="none" stroke="black" points="169.5,-684 142.5,-666 169.5,-648 196.5,-666 169.5,-684"/>
</g>
<!-- startevent&#45;&gt;tau_1 -->
<g id="edge1" class="edge">
<title>startevent&#45;&gt;tau_1</title>
<path fill="none" stroke="black" d="M169.5,-719.7C169.5,-711.98 169.5,-702.71 169.5,-694.11"/>
<polygon fill="black" stroke="black" points="173,-694.1 169.5,-684.1 166,-694.1 173,-694.1"/>
</g>
<!-- endevent -->
<g id="node2" class="node">
<title>endevent</title>
<ellipse fill="none" stroke="black" cx="159.5" cy="-18" rx="27" ry="18"/>
<text text-anchor="middle" x="159.5" y="-14.3" font-family="Times New Roman,serif" font-size="14.00">end</text>
</g>
<!-- ca1645f1&#45;d286&#45;4b18&#45;a606&#45;47a521ecfc1f -->
<g id="node3" class="node">
<title>ca1645f1&#45;d286&#45;4b18&#45;a606&#45;47a521ecfc1f</title>
<path fill="none" stroke="black" d="M73,-324C73,-324 12,-324 12,-324 6,-324 0,-318 0,-312 0,-312 0,-300 0,-300 0,-294 6,-288 12,-288 12,-288 73,-288 73,-288 79,-288 85,-294 85,-300 85,-300 85,-312 85,-312 85,-318 79,-324 73,-324"/>
<text text-anchor="middle" x="42.5" y="-302.3" font-family="Times New Roman,serif" font-size="14.00">Check State</text>
</g>
<!-- p_9 -->
<g id="node8" class="node">
<title>p_9</title>
<polygon fill="none" stroke="black" points="104.5,-252 77.5,-234 104.5,-216 131.5,-234 104.5,-252"/>
</g>
<!-- ca1645f1&#45;d286&#45;4b18&#45;a606&#45;47a521ecfc1f&#45;&gt;p_9 -->
<g id="edge4" class="edge">
<title>ca1645f1&#45;d286&#45;4b18&#45;a606&#45;47a521ecfc1f&#45;&gt;p_9</title>
<path fill="none" stroke="black" d="M57.83,-287.7C67.08,-277.24 78.87,-263.93 88.29,-253.3"/>
<polygon fill="black" stroke="black" points="90.93,-255.6 94.94,-245.79 85.69,-250.96 90.93,-255.6"/>
</g>
<!-- a4c9cfe0&#45;d43f&#45;4813&#45;b379&#45;fe26c2d3a2e9 -->
<g id="node4" class="node">
<title>a4c9cfe0&#45;d43f&#45;4813&#45;b379&#45;fe26c2d3a2e9</title>
<path fill="none" stroke="black" d="M157.5,-540C157.5,-540 127.5,-540 127.5,-540 121.5,-540 115.5,-534 115.5,-528 115.5,-528 115.5,-516 115.5,-516 115.5,-510 121.5,-504 127.5,-504 127.5,-504 157.5,-504 157.5,-504 163.5,-504 169.5,-510 169.5,-516 169.5,-516 169.5,-528 169.5,-528 169.5,-534 163.5,-540 157.5,-540"/>
<text text-anchor="middle" x="142.5" y="-518.3" font-family="Times New Roman,serif" font-size="14.00">Set</text>
</g>
<!-- p_7 -->
<g id="node11" class="node">
<title>p_7</title>
<polygon fill="none" stroke="black" points="142.5,-468 115.5,-450 142.5,-432 169.5,-450 142.5,-468"/>
</g>
<!-- a4c9cfe0&#45;d43f&#45;4813&#45;b379&#45;fe26c2d3a2e9&#45;&gt;p_7 -->
<g id="edge6" class="edge">
<title>a4c9cfe0&#45;d43f&#45;4813&#45;b379&#45;fe26c2d3a2e9&#45;&gt;p_7</title>
<path fill="none" stroke="black" d="M142.5,-503.7C142.5,-495.98 142.5,-486.71 142.5,-478.11"/>
<polygon fill="black" stroke="black" points="146,-478.1 142.5,-468.1 139,-478.1 146,-478.1"/>
</g>
<!-- p_5 -->
<g id="node9" class="node">
<title>p_5</title>
<polygon fill="none" stroke="black" points="169.5,-612 142.5,-594 169.5,-576 196.5,-594 169.5,-612"/>
</g>
<!-- tau_1&#45;&gt;p_5 -->
<g id="edge7" class="edge">
<title>tau_1&#45;&gt;p_5</title>
<path fill="none" stroke="black" d="M169.5,-647.7C169.5,-639.98 169.5,-630.71 169.5,-622.11"/>
<polygon fill="black" stroke="black" points="173,-622.1 169.5,-612.1 166,-622.1 173,-622.1"/>
</g>
<!-- skip_11 -->
<g id="node6" class="node">
<title>skip_11</title>
<polygon fill="none" stroke="black" points="159.5,-108 132.5,-90 159.5,-72 186.5,-90 159.5,-108"/>
</g>
<!-- skip_11&#45;&gt;endevent -->
<g id="edge2" class="edge">
<title>skip_11&#45;&gt;endevent</title>
<path fill="none" stroke="black" d="M159.5,-71.7C159.5,-63.98 159.5,-54.71 159.5,-46.11"/>
<polygon fill="black" stroke="black" points="163,-46.1 159.5,-36.1 156,-46.1 163,-46.1"/>
</g>
<!-- p_8 -->
<g id="node7" class="node">
<title>p_8</title>
<polygon fill="none" stroke="black" points="104.5,-396 77.5,-378 104.5,-360 131.5,-378 104.5,-396"/>
</g>
<!-- p_8&#45;&gt;ca1645f1&#45;d286&#45;4b18&#45;a606&#45;47a521ecfc1f -->
<g id="edge3" class="edge">
<title>p_8&#45;&gt;ca1645f1&#45;d286&#45;4b18&#45;a606&#45;47a521ecfc1f</title>
<path fill="none" stroke="black" d="M94.81,-366.06C86.73,-356.94 74.91,-343.59 64.54,-331.89"/>
<polygon fill="black" stroke="black" points="66.92,-329.29 57.67,-324.12 61.68,-333.93 66.92,-329.29"/>
</g>
<!-- p_9&#45;&gt;p_8 -->
<g id="edge10" class="edge">
<title>p_9&#45;&gt;p_8</title>
<path fill="none" stroke="black" d="M104.5,-252.19C104.5,-276.42 104.5,-320.89 104.5,-349.68"/>
<polygon fill="black" stroke="black" points="101,-349.87 104.5,-359.87 108,-349.87 101,-349.87"/>
</g>
<!-- p_6 -->
<g id="node10" class="node">
<title>p_6</title>
<polygon fill="none" stroke="black" points="159.5,-180 132.5,-162 159.5,-144 186.5,-162 159.5,-180"/>
</g>
<!-- p_9&#45;&gt;p_6 -->
<g id="edge11" class="edge">
<title>p_9&#45;&gt;p_6</title>
<path fill="none" stroke="black" d="M113.34,-221.75C121.63,-211.2 134.2,-195.2 144.13,-182.56"/>
<polygon fill="black" stroke="black" points="147.08,-184.48 150.5,-174.45 141.57,-180.15 147.08,-184.48"/>
</g>
<!-- p_5&#45;&gt;a4c9cfe0&#45;d43f&#45;4813&#45;b379&#45;fe26c2d3a2e9 -->
<g id="edge5" class="edge">
<title>p_5&#45;&gt;a4c9cfe0&#45;d43f&#45;4813&#45;b379&#45;fe26c2d3a2e9</title>
<path fill="none" stroke="black" d="M164.17,-579.17C160.92,-570.74 156.65,-559.69 152.77,-549.63"/>
<polygon fill="black" stroke="black" points="155.93,-548.09 149.06,-540.02 149.4,-550.61 155.93,-548.09"/>
</g>
<!-- p_6&#45;&gt;skip_11 -->
<g id="edge8" class="edge">
<title>p_6&#45;&gt;skip_11</title>
<path fill="none" stroke="black" d="M159.5,-143.7C159.5,-135.98 159.5,-126.71 159.5,-118.11"/>
<polygon fill="black" stroke="black" points="163,-118.1 159.5,-108.1 156,-118.1 163,-118.1"/>
</g>
<!-- p_6&#45;&gt;p_5 -->
<g id="edge12" class="edge">
<title>p_6&#45;&gt;p_5</title>
<path fill="none" stroke="black" d="M165.61,-176.39C176.35,-201.2 197.5,-256.26 197.5,-305 197.5,-451 197.5,-451 197.5,-451 197.5,-493.33 185.37,-541.45 177.08,-569.4"/>
<polygon fill="black" stroke="black" points="173.7,-568.49 174.12,-579.07 180.39,-570.53 173.7,-568.49"/>
</g>
<!-- p_7&#45;&gt;p_8 -->
<g id="edge9" class="edge">
<title>p_7&#45;&gt;p_8</title>
<path fill="none" stroke="black" d="M135.71,-436.49C130.32,-426.56 122.65,-412.44 116.27,-400.68"/>
<polygon fill="black" stroke="black" points="119.34,-399 111.49,-391.88 113.19,-402.34 119.34,-399"/>
</g>
<!-- p_7&#45;&gt;p_6 -->
<g id="edge13" class="edge">
<title>p_7&#45;&gt;p_6</title>
<path fill="none" stroke="black" d="M143.49,-432.39C146.31,-384.9 154.43,-248.25 157.9,-189.92"/>
<polygon fill="black" stroke="black" points="161.41,-189.85 158.51,-179.66 154.42,-189.43 161.41,-189.85"/>
</g>
</g>
</svg>
