<?xml version="1.0" encoding="UTF-8" standalone="no"?>
<!DOCTYPE svg PUBLIC "-//W3C//DTD SVG 1.1//EN"
 "http://www.w3.org/Graphics/SVG/1.1/DTD/svg11.dtd">
<!-- Generated by graphviz version 2.44.1 (20200629.0800)
 -->
<!-- Title: G Pages: 1 -->
<svg width="349pt" height="2276pt"
 viewBox="0.00 0.00 349.42 2276.00" xmlns="http://www.w3.org/2000/svg" xmlns:xlink="http://www.w3.org/1999/xlink">
<g id="graph0" class="graph" transform="scale(1 1) rotate(0) translate(4 2272)">
<title>G</title>
<!-- startevent -->
<g id="node1" class="node">
<title>startevent</title>
<ellipse fill="none" stroke="black" cx="50" cy="-2250" rx="27" ry="18"/>
<text text-anchor="middle" x="50" y="-2246.3" font-family="Times New Roman,serif" font-size="14.00">start</text>
</g>
<!-- tau_1 -->
<g id="node15" class="node">
<title>tau_1</title>
<polygon fill="none" stroke="black" points="50,-2196 23,-2178 50,-2160 77,-2178 50,-2196"/>
</g>
<!-- startevent&#45;&gt;tau_1 -->
<g id="edge1" class="edge">
<title>startevent&#45;&gt;tau_1</title>
<path fill="none" stroke="black" d="M50,-2231.7C50,-2223.98 50,-2214.71 50,-2206.11"/>
<polygon fill="black" stroke="black" points="53.5,-2206.1 50,-2196.1 46.5,-2206.1 53.5,-2206.1"/>
</g>
<!-- endevent -->
<g id="node2" class="node">
<title>endevent</title>
<ellipse fill="none" stroke="black" cx="50" cy="-18" rx="27" ry="18"/>
<text text-anchor="middle" x="50" y="-14.3" font-family="Times New Roman,serif" font-size="14.00">end</text>
</g>
<!-- aae3a4b8&#45;7d6f&#45;4a75&#45;816c&#45;bc9595248fe8 -->
<g id="node3" class="node">
<title>aae3a4b8&#45;7d6f&#45;4a75&#45;816c&#45;bc9595248fe8</title>
<path fill="none" stroke="black" d="M302,-1908C302,-1908 204,-1908 204,-1908 198,-1908 192,-1902 192,-1896 192,-1896 192,-1884 192,-1884 192,-1878 198,-1872 204,-1872 204,-1872 302,-1872 302,-1872 308,-1872 314,-1878 314,-1884 314,-1884 314,-1896 314,-1896 314,-1902 308,-1908 302,-1908"/>
<text text-anchor="middle" x="253" y="-1886.3" font-family="Times New Roman,serif" font-size="14.00">Get Machine State</text>
</g>
<!-- p_14 -->
<g id="node17" class="node">
<title>p_14</title>
<polygon fill="none" stroke="black" points="279,-1836 252,-1818 279,-1800 306,-1818 279,-1836"/>
</g>
<!-- aae3a4b8&#45;7d6f&#45;4a75&#45;816c&#45;bc9595248fe8&#45;&gt;p_14 -->
<g id="edge4" class="edge">
<title>aae3a4b8&#45;7d6f&#45;4a75&#45;816c&#45;bc9595248fe8&#45;&gt;p_14</title>
<path fill="none" stroke="black" d="M259.43,-1871.7C262.73,-1862.8 266.8,-1851.84 270.38,-1842.22"/>
<polygon fill="black" stroke="black" points="273.66,-1843.42 273.87,-1832.82 267.1,-1840.98 273.66,-1843.42"/>
</g>
<!-- a25a91ad&#45;5238&#45;41fd&#45;ab31&#45;48c4096fd5bd -->
<g id="node4" class="node">
<title>a25a91ad&#45;5238&#45;41fd&#45;ab31&#45;48c4096fd5bd</title>
<path fill="none" stroke="black" d="M254.5,-1044C254.5,-1044 195.5,-1044 195.5,-1044 189.5,-1044 183.5,-1038 183.5,-1032 183.5,-1032 183.5,-1020 183.5,-1020 183.5,-1014 189.5,-1008 195.5,-1008 195.5,-1008 254.5,-1008 254.5,-1008 260.5,-1008 266.5,-1014 266.5,-1020 266.5,-1020 266.5,-1032 266.5,-1032 266.5,-1038 260.5,-1044 254.5,-1044"/>
<text text-anchor="middle" x="225" y="-1022.3" font-family="Times New Roman,serif" font-size="14.00">MT45 Start</text>
</g>
<!-- p_30 -->
<g id="node19" class="node">
<title>p_30</title>
<polygon fill="none" stroke="black" points="250,-972 223,-954 250,-936 277,-954 250,-972"/>
</g>
<!-- a25a91ad&#45;5238&#45;41fd&#45;ab31&#45;48c4096fd5bd&#45;&gt;p_30 -->
<g id="edge6" class="edge">
<title>a25a91ad&#45;5238&#45;41fd&#45;ab31&#45;48c4096fd5bd&#45;&gt;p_30</title>
<path fill="none" stroke="black" d="M231.18,-1007.7C234.32,-998.9 238.19,-988.07 241.6,-978.52"/>
<polygon fill="black" stroke="black" points="245,-979.42 245.06,-968.82 238.4,-977.06 245,-979.42"/>
</g>
<!-- ddde5df1&#45;f45f&#45;439a&#45;8ad8&#45;f917d811cf11 -->
<g id="node5" class="node">
<title>ddde5df1&#45;f45f&#45;439a&#45;8ad8&#45;f917d811cf11</title>
<path fill="none" stroke="black" d="M314,-396C314,-396 118,-396 118,-396 112,-396 106,-390 106,-384 106,-384 106,-372 106,-372 106,-366 112,-360 118,-360 118,-360 314,-360 314,-360 320,-360 326,-366 326,-372 326,-372 326,-384 326,-384 326,-390 320,-396 314,-396"/>
<text text-anchor="middle" x="216" y="-374.3" font-family="Times New Roman,serif" font-size="14.00">IRB2600 Measure and Put on Tray</text>
</g>
<!-- p_41 -->
<g id="node22" class="node">
<title>p_41</title>
<polygon fill="none" stroke="black" points="216,-324 189,-306 216,-288 243,-306 216,-324"/>
</g>
<!-- ddde5df1&#45;f45f&#45;439a&#45;8ad8&#45;f917d811cf11&#45;&gt;p_41 -->
<g id="edge8" class="edge">
<title>ddde5df1&#45;f45f&#45;439a&#45;8ad8&#45;f917d811cf11&#45;&gt;p_41</title>
<path fill="none" stroke="black" d="M216,-359.7C216,-351.98 216,-342.71 216,-334.11"/>
<polygon fill="black" stroke="black" points="219.5,-334.1 216,-324.1 212.5,-334.1 219.5,-334.1"/>
</g>
<!-- fef61a88&#45;147f&#45;496f&#45;ad03&#45;e51565c30c30 -->
<g id="node6" class="node">
<title>fef61a88&#45;147f&#45;496f&#45;ad03&#45;e51565c30c30</title>
<path fill="none" stroke="black" d="M261.5,-612C261.5,-612 174.5,-612 174.5,-612 168.5,-612 162.5,-606 162.5,-600 162.5,-600 162.5,-588 162.5,-588 162.5,-582 168.5,-576 174.5,-576 174.5,-576 261.5,-576 261.5,-576 267.5,-576 273.5,-582 273.5,-588 273.5,-588 273.5,-600 273.5,-600 273.5,-606 267.5,-612 261.5,-612"/>
<text text-anchor="middle" x="218" y="-590.3" font-family="Times New Roman,serif" font-size="14.00">MT45 Take Out</text>
</g>
<!-- p_38 -->
<g id="node24" class="node">
<title>p_38</title>
<polygon fill="none" stroke="black" points="235,-540 208,-522 235,-504 262,-522 235,-540"/>
</g>
<!-- fef61a88&#45;147f&#45;496f&#45;ad03&#45;e51565c30c30&#45;&gt;p_38 -->
<g id="edge10" class="edge">
<title>fef61a88&#45;147f&#45;496f&#45;ad03&#45;e51565c30c30&#45;&gt;p_38</title>
<path fill="none" stroke="black" d="M222.2,-575.7C224.26,-567.22 226.77,-556.88 229.03,-547.6"/>
<polygon fill="black" stroke="black" points="232.46,-548.28 231.42,-537.74 225.66,-546.63 232.46,-548.28"/>
</g>
<!-- bfc1d06d&#45;a26a&#45;4b10&#45;861d&#45;78a6dcafc04e -->
<g id="node7" class="node">
<title>bfc1d06d&#45;a26a&#45;4b10&#45;861d&#45;78a6dcafc04e</title>
<path fill="none" stroke="black" d="M161.5,-1908C161.5,-1908 40.5,-1908 40.5,-1908 34.5,-1908 28.5,-1902 28.5,-1896 28.5,-1896 28.5,-1884 28.5,-1884 28.5,-1878 34.5,-1872 40.5,-1872 40.5,-1872 161.5,-1872 161.5,-1872 167.5,-1872 173.5,-1878 173.5,-1884 173.5,-1884 173.5,-1896 173.5,-1896 173.5,-1902 167.5,-1908 161.5,-1908"/>
<text text-anchor="middle" x="101" y="-1886.3" font-family="Times New Roman,serif" font-size="14.00">Next Position on Tray</text>
</g>
<!-- 3984a729&#45;f904&#45;4bd0&#45;b2b0&#45;dc0b8abccd87 -->
<g id="node13" class="node">
<title>3984a729&#45;f904&#45;4bd0&#45;b2b0&#45;dc0b8abccd87</title>
<polygon fill="none" stroke="black" points="78,-252 51,-234 78,-216 105,-234 78,-252"/>
<text text-anchor="middle" x="78" y="-230.3" font-family="Times New Roman,serif" font-size="14.00">+</text>
</g>
<!-- bfc1d06d&#45;a26a&#45;4b10&#45;861d&#45;78a6dcafc04e&#45;&gt;3984a729&#45;f904&#45;4bd0&#45;b2b0&#45;dc0b8abccd87 -->
<g id="edge12" class="edge">
<title>bfc1d06d&#45;a26a&#45;4b10&#45;861d&#45;78a6dcafc04e&#45;&gt;3984a729&#45;f904&#45;4bd0&#45;b2b0&#45;dc0b8abccd87</title>
<path fill="none" stroke="black" d="M96.35,-1871.66C89.62,-1845.05 78,-1792.45 78,-1747 78,-1747 78,-1747 78,-377 78,-337 78,-290.65 78,-262.08"/>
<polygon fill="black" stroke="black" points="81.5,-262.05 78,-252.05 74.5,-262.05 81.5,-262.05"/>
</g>
<!-- d6eaf804&#45;ab6b&#45;4367&#45;a0ed&#45;0b573a955caa -->
<g id="node8" class="node">
<title>d6eaf804&#45;ab6b&#45;4367&#45;a0ed&#45;0b573a955caa</title>
<path fill="none" stroke="black" d="M276,-1476C276,-1476 194,-1476 194,-1476 188,-1476 182,-1470 182,-1464 182,-1464 182,-1452 182,-1452 182,-1446 188,-1440 194,-1440 194,-1440 276,-1440 276,-1440 282,-1440 288,-1446 288,-1452 288,-1452 288,-1464 288,-1464 288,-1470 282,-1476 276,-1476"/>
<text text-anchor="middle" x="235" y="-1454.3" font-family="Times New Roman,serif" font-size="14.00">Create Program</text>
</g>
<!-- p_22 -->
<g id="node26" class="node">
<title>p_22</title>
<polygon fill="none" stroke="black" points="261,-1404 234,-1386 261,-1368 288,-1386 261,-1404"/>
</g>
<!-- d6eaf804&#45;ab6b&#45;4367&#45;a0ed&#45;0b573a955caa&#45;&gt;p_22 -->
<g id="edge14" class="edge">
<title>d6eaf804&#45;ab6b&#45;4367&#45;a0ed&#45;0b573a955caa&#45;&gt;p_22</title>
<path fill="none" stroke="black" d="M241.43,-1439.7C244.73,-1430.8 248.8,-1419.84 252.38,-1410.22"/>
<polygon fill="black" stroke="black" points="255.66,-1411.42 255.87,-1400.82 249.1,-1408.98 255.66,-1411.42"/>
</g>
<!-- c737ec70&#45;17de&#45;4c1c&#45;9632&#45;38bb7c92b48c -->
<g id="node9" class="node">
<title>c737ec70&#45;17de&#45;4c1c&#45;9632&#45;38bb7c92b48c</title>
<path fill="none" stroke="black" d="M292.5,-828C292.5,-828 155.5,-828 155.5,-828 149.5,-828 143.5,-822 143.5,-816 143.5,-816 143.5,-804 143.5,-804 143.5,-798 149.5,-792 155.5,-792 155.5,-792 292.5,-792 292.5,-792 298.5,-792 304.5,-798 304.5,-804 304.5,-804 304.5,-816 304.5,-816 304.5,-822 298.5,-828 292.5,-828"/>
<text text-anchor="middle" x="224" y="-806.3" font-family="Times New Roman,serif" font-size="14.00">Wait For Machining End</text>
</g>
<!-- p_34 -->
<g id="node28" class="node">
<title>p_34</title>
<polygon fill="none" stroke="black" points="238,-756 211,-738 238,-720 265,-738 238,-756"/>
</g>
<!-- c737ec70&#45;17de&#45;4c1c&#45;9632&#45;38bb7c92b48c&#45;&gt;p_34 -->
<g id="edge16" class="edge">
<title>c737ec70&#45;17de&#45;4c1c&#45;9632&#45;38bb7c92b48c&#45;&gt;p_34</title>
<path fill="none" stroke="black" d="M227.46,-791.7C229.11,-783.43 231.12,-773.38 232.94,-764.28"/>
<polygon fill="black" stroke="black" points="236.43,-764.69 234.96,-754.2 229.57,-763.32 236.43,-764.69"/>
</g>
<!-- b2e89694&#45;87b8&#45;4153&#45;88dd&#45;e7b203ff7789 -->
<g id="node10" class="node">
<title>b2e89694&#45;87b8&#45;4153&#45;88dd&#45;e7b203ff7789</title>
<path fill="none" stroke="black" d="M281,-1260C281,-1260 177,-1260 177,-1260 171,-1260 165,-1254 165,-1248 165,-1248 165,-1236 165,-1236 165,-1230 171,-1224 177,-1224 177,-1224 281,-1224 281,-1224 287,-1224 293,-1230 293,-1236 293,-1236 293,-1248 293,-1248 293,-1254 287,-1260 281,-1260"/>
<text text-anchor="middle" x="229" y="-1238.3" font-family="Times New Roman,serif" font-size="14.00">Set Program MT45</text>
</g>
<!-- p_26 -->
<g id="node31" class="node">
<title>p_26</title>
<polygon fill="none" stroke="black" points="252,-1188 225,-1170 252,-1152 279,-1170 252,-1188"/>
</g>
<!-- b2e89694&#45;87b8&#45;4153&#45;88dd&#45;e7b203ff7789&#45;&gt;p_26 -->
<g id="edge18" class="edge">
<title>b2e89694&#45;87b8&#45;4153&#45;88dd&#45;e7b203ff7789&#45;&gt;p_26</title>
<path fill="none" stroke="black" d="M234.69,-1223.7C237.54,-1215.01 241.04,-1204.36 244.14,-1194.91"/>
<polygon fill="black" stroke="black" points="247.51,-1195.87 247.31,-1185.28 240.86,-1193.69 247.51,-1195.87"/>
</g>
<!-- c560d0fd&#45;d92b&#45;41e2&#45;b0dc&#45;3f181ec00f13 -->
<g id="node11" class="node">
<title>c560d0fd&#45;d92b&#45;41e2&#45;b0dc&#45;3f181ec00f13</title>
<path fill="none" stroke="black" d="M310,-1692C310,-1692 210,-1692 210,-1692 204,-1692 198,-1686 198,-1680 198,-1680 198,-1668 198,-1668 198,-1662 204,-1656 210,-1656 210,-1656 310,-1656 310,-1656 316,-1656 322,-1662 322,-1668 322,-1668 322,-1680 322,-1680 322,-1686 316,-1692 310,-1692"/>
<text text-anchor="middle" x="260" y="-1670.3" font-family="Times New Roman,serif" font-size="14.00">Spawn Production</text>
</g>
<!-- p_18 -->
<g id="node33" class="node">
<title>p_18</title>
<polygon fill="none" stroke="black" points="273,-1620 246,-1602 273,-1584 300,-1602 273,-1620"/>
</g>
<!-- c560d0fd&#45;d92b&#45;41e2&#45;b0dc&#45;3f181ec00f13&#45;&gt;p_18 -->
<g id="edge20" class="edge">
<title>c560d0fd&#45;d92b&#45;41e2&#45;b0dc&#45;3f181ec00f13&#45;&gt;p_18</title>
<path fill="none" stroke="black" d="M263.21,-1655.7C264.75,-1647.43 266.61,-1637.38 268.3,-1628.28"/>
<polygon fill="black" stroke="black" points="271.79,-1628.67 270.18,-1618.2 264.91,-1627.4 271.79,-1628.67"/>
</g>
<!-- tauSplit_5 -->
<g id="node12" class="node">
<title>tauSplit_5</title>
<polygon fill="none" stroke="black" points="101,-2052 74,-2034 101,-2016 128,-2034 101,-2052"/>
<text text-anchor="middle" x="101" y="-2030.3" font-family="Times New Roman,serif" font-size="14.00">+</text>
</g>
<!-- tauSplit_5&#45;&gt;bfc1d06d&#45;a26a&#45;4b10&#45;861d&#45;78a6dcafc04e -->
<g id="edge11" class="edge">
<title>tauSplit_5&#45;&gt;bfc1d06d&#45;a26a&#45;4b10&#45;861d&#45;78a6dcafc04e</title>
<path fill="none" stroke="black" d="M101,-2015.87C101,-1991.67 101,-1947.21 101,-1918.39"/>
<polygon fill="black" stroke="black" points="104.5,-1918.19 101,-1908.19 97.5,-1918.19 104.5,-1918.19"/>
</g>
<!-- p_13 -->
<g id="node16" class="node">
<title>p_13</title>
<polygon fill="none" stroke="black" points="253,-1980 226,-1962 253,-1944 280,-1962 253,-1980"/>
</g>
<!-- tauSplit_5&#45;&gt;p_13 -->
<g id="edge22" class="edge">
<title>tauSplit_5&#45;&gt;p_13</title>
<path fill="none" stroke="black" d="M116.13,-2026.03C142.28,-2013.99 196.2,-1989.16 227.99,-1974.52"/>
<polygon fill="black" stroke="black" points="229.86,-1977.51 237.48,-1970.15 226.93,-1971.15 229.86,-1977.51"/>
</g>
<!-- p_6 -->
<g id="node20" class="node">
<title>p_6</title>
<polygon fill="none" stroke="black" points="50,-180 23,-162 50,-144 77,-162 50,-180"/>
</g>
<!-- 3984a729&#45;f904&#45;4bd0&#45;b2b0&#45;dc0b8abccd87&#45;&gt;p_6 -->
<g id="edge24" class="edge">
<title>3984a729&#45;f904&#45;4bd0&#45;b2b0&#45;dc0b8abccd87&#45;&gt;p_6</title>
<path fill="none" stroke="black" d="M72.6,-219.5C68.81,-210.01 63.63,-197.08 59.19,-185.98"/>
<polygon fill="black" stroke="black" points="62.35,-184.44 55.38,-176.46 55.85,-187.04 62.35,-184.44"/>
</g>
<!-- skip_40 -->
<g id="node14" class="node">
<title>skip_40</title>
<polygon fill="none" stroke="black" points="50,-108 23,-90 50,-72 77,-90 50,-108"/>
</g>
<!-- skip_40&#45;&gt;endevent -->
<g id="edge2" class="edge">
<title>skip_40&#45;&gt;endevent</title>
<path fill="none" stroke="black" d="M50,-71.7C50,-63.98 50,-54.71 50,-46.11"/>
<polygon fill="black" stroke="black" points="53.5,-46.1 50,-36.1 46.5,-46.1 53.5,-46.1"/>
</g>
<!-- p_5 -->
<g id="node29" class="node">
<title>p_5</title>
<polygon fill="none" stroke="black" points="50,-2124 23,-2106 50,-2088 77,-2106 50,-2124"/>
</g>
<!-- tau_1&#45;&gt;p_5 -->
<g id="edge26" class="edge">
<title>tau_1&#45;&gt;p_5</title>
<path fill="none" stroke="black" d="M50,-2159.7C50,-2151.98 50,-2142.71 50,-2134.11"/>
<polygon fill="black" stroke="black" points="53.5,-2134.1 50,-2124.1 46.5,-2134.1 53.5,-2134.1"/>
</g>
<!-- p_13&#45;&gt;aae3a4b8&#45;7d6f&#45;4a75&#45;816c&#45;bc9595248fe8 -->
<g id="edge3" class="edge">
<title>p_13&#45;&gt;aae3a4b8&#45;7d6f&#45;4a75&#45;816c&#45;bc9595248fe8</title>
<path fill="none" stroke="black" d="M253,-1943.7C253,-1935.98 253,-1926.71 253,-1918.11"/>
<polygon fill="black" stroke="black" points="256.5,-1918.1 253,-1908.1 249.5,-1918.1 256.5,-1918.1"/>
</g>
<!-- p_14&#45;&gt;p_13 -->
<g id="edge27" class="edge">
<title>p_14&#45;&gt;p_13</title>
<path fill="none" stroke="black" d="M290.59,-1828.54C301.33,-1838.2 316.58,-1854.23 323,-1872 328.43,-1887.05 330.12,-1893.67 323,-1908 313.58,-1926.94 293.81,-1940.92 277.67,-1949.75"/>
<polygon fill="black" stroke="black" points="276,-1946.68 268.7,-1954.36 279.19,-1952.91 276,-1946.68"/>
</g>
<!-- p_17 -->
<g id="node32" class="node">
<title>p_17</title>
<polygon fill="none" stroke="black" points="279,-1764 252,-1746 279,-1728 306,-1746 279,-1764"/>
</g>
<!-- p_14&#45;&gt;p_17 -->
<g id="edge28" class="edge">
<title>p_14&#45;&gt;p_17</title>
<path fill="none" stroke="black" d="M279,-1799.7C279,-1791.98 279,-1782.71 279,-1774.11"/>
<polygon fill="black" stroke="black" points="282.5,-1774.1 279,-1764.1 275.5,-1774.1 282.5,-1774.1"/>
</g>
<!-- p_29 -->
<g id="node18" class="node">
<title>p_29</title>
<polygon fill="none" stroke="black" points="252,-1116 225,-1098 252,-1080 279,-1098 252,-1116"/>
</g>
<!-- p_29&#45;&gt;a25a91ad&#45;5238&#45;41fd&#45;ab31&#45;48c4096fd5bd -->
<g id="edge5" class="edge">
<title>p_29&#45;&gt;a25a91ad&#45;5238&#45;41fd&#45;ab31&#45;48c4096fd5bd</title>
<path fill="none" stroke="black" d="M246.67,-1083.17C243.42,-1074.74 239.15,-1063.69 235.27,-1053.63"/>
<polygon fill="black" stroke="black" points="238.43,-1052.09 231.56,-1044.02 231.9,-1054.61 238.43,-1052.09"/>
</g>
<!-- p_30&#45;&gt;p_29 -->
<g id="edge29" class="edge">
<title>p_30&#45;&gt;p_29</title>
<path fill="none" stroke="black" d="M257.59,-967.08C263.65,-977.47 271.66,-993.11 275,-1008 278.5,-1023.61 278.25,-1028.33 275,-1044 272.76,-1054.79 268.21,-1066.08 263.74,-1075.45"/>
<polygon fill="black" stroke="black" points="260.59,-1073.92 259.22,-1084.42 266.84,-1077.07 260.59,-1073.92"/>
</g>
<!-- p_33 -->
<g id="node27" class="node">
<title>p_33</title>
<polygon fill="none" stroke="black" points="250,-900 223,-882 250,-864 277,-882 250,-900"/>
</g>
<!-- p_30&#45;&gt;p_33 -->
<g id="edge31" class="edge">
<title>p_30&#45;&gt;p_33</title>
<path fill="none" stroke="black" d="M250,-935.7C250,-927.98 250,-918.71 250,-910.11"/>
<polygon fill="black" stroke="black" points="253.5,-910.1 250,-900.1 246.5,-910.1 253.5,-910.1"/>
</g>
<!-- p_6&#45;&gt;skip_40 -->
<g id="edge25" class="edge">
<title>p_6&#45;&gt;skip_40</title>
<path fill="none" stroke="black" d="M50,-143.7C50,-135.98 50,-126.71 50,-118.11"/>
<polygon fill="black" stroke="black" points="53.5,-118.1 50,-108.1 46.5,-118.1 53.5,-118.1"/>
</g>
<!-- p_6&#45;&gt;p_5 -->
<g id="edge32" class="edge">
<title>p_6&#45;&gt;p_5</title>
<path fill="none" stroke="black" d="M42.41,-175.4C28.42,-199.46 0,-254.56 0,-305 0,-1963 0,-1963 0,-1963 0,-2007.93 22.54,-2056.54 37.35,-2083.64"/>
<polygon fill="black" stroke="black" points="34.45,-2085.61 42.41,-2092.6 40.54,-2082.17 34.45,-2085.61"/>
</g>
<!-- p_40 -->
<g id="node21" class="node">
<title>p_40</title>
<polygon fill="none" stroke="black" points="235,-468 208,-450 235,-432 262,-450 235,-468"/>
</g>
<!-- p_40&#45;&gt;ddde5df1&#45;f45f&#45;439a&#45;8ad8&#45;f917d811cf11 -->
<g id="edge7" class="edge">
<title>p_40&#45;&gt;ddde5df1&#45;f45f&#45;439a&#45;8ad8&#45;f917d811cf11</title>
<path fill="none" stroke="black" d="M231.06,-434.5C228.82,-426.23 225.94,-415.62 223.3,-405.89"/>
<polygon fill="black" stroke="black" points="226.67,-404.94 220.67,-396.2 219.91,-406.77 226.67,-404.94"/>
</g>
<!-- p_41&#45;&gt;3984a729&#45;f904&#45;4bd0&#45;b2b0&#45;dc0b8abccd87 -->
<g id="edge23" class="edge">
<title>p_41&#45;&gt;3984a729&#45;f904&#45;4bd0&#45;b2b0&#45;dc0b8abccd87</title>
<path fill="none" stroke="black" d="M201.49,-297.64C177.74,-285.59 130.34,-261.55 101.67,-247.01"/>
<polygon fill="black" stroke="black" points="103.23,-243.87 92.73,-242.47 100.06,-250.12 103.23,-243.87"/>
</g>
<!-- p_41&#45;&gt;p_40 -->
<g id="edge33" class="edge">
<title>p_41&#45;&gt;p_40</title>
<path fill="none" stroke="black" d="M237.73,-309.59C265.75,-314.23 313.45,-326.81 335,-360 343.71,-373.42 343.25,-382.29 335,-396 319.82,-421.22 288.16,-435.08 264.5,-442.23"/>
<polygon fill="black" stroke="black" points="263.3,-438.93 254.61,-444.98 265.18,-445.67 263.3,-438.93"/>
</g>
<!-- p_37 -->
<g id="node23" class="node">
<title>p_37</title>
<polygon fill="none" stroke="black" points="238,-684 211,-666 238,-648 265,-666 238,-684"/>
</g>
<!-- p_37&#45;&gt;fef61a88&#45;147f&#45;496f&#45;ad03&#45;e51565c30c30 -->
<g id="edge9" class="edge">
<title>p_37&#45;&gt;fef61a88&#45;147f&#45;496f&#45;ad03&#45;e51565c30c30</title>
<path fill="none" stroke="black" d="M233.86,-650.5C231.5,-642.23 228.46,-631.62 225.68,-621.89"/>
<polygon fill="black" stroke="black" points="229.03,-620.86 222.92,-612.2 222.3,-622.78 229.03,-620.86"/>
</g>
<!-- p_38&#45;&gt;p_40 -->
<g id="edge34" class="edge">
<title>p_38&#45;&gt;p_40</title>
<path fill="none" stroke="black" d="M235,-503.7C235,-495.98 235,-486.71 235,-478.11"/>
<polygon fill="black" stroke="black" points="238.5,-478.1 235,-468.1 231.5,-478.1 238.5,-478.1"/>
</g>
<!-- p_38&#45;&gt;p_37 -->
<g id="edge35" class="edge">
<title>p_38&#45;&gt;p_37</title>
<path fill="none" stroke="black" d="M247.17,-531.95C258.89,-541.4 275.86,-557.47 283,-576 288.76,-590.93 288.52,-596.98 283,-612 277.81,-626.13 267,-639.06 257.28,-648.62"/>
<polygon fill="black" stroke="black" points="254.8,-646.15 249.84,-655.52 259.56,-651.28 254.8,-646.15"/>
</g>
<!-- p_21 -->
<g id="node25" class="node">
<title>p_21</title>
<polygon fill="none" stroke="black" points="273,-1548 246,-1530 273,-1512 300,-1530 273,-1548"/>
</g>
<!-- p_21&#45;&gt;d6eaf804&#45;ab6b&#45;4367&#45;a0ed&#45;0b573a955caa -->
<g id="edge13" class="edge">
<title>p_21&#45;&gt;d6eaf804&#45;ab6b&#45;4367&#45;a0ed&#45;0b573a955caa</title>
<path fill="none" stroke="black" d="M266.21,-1516.49C261.48,-1507.79 255.02,-1495.87 249.19,-1485.15"/>
<polygon fill="black" stroke="black" points="252.15,-1483.26 244.3,-1476.14 246,-1486.6 252.15,-1483.26"/>
</g>
<!-- p_22&#45;&gt;p_21 -->
<g id="edge38" class="edge">
<title>p_22&#45;&gt;p_21</title>
<path fill="none" stroke="black" d="M271.19,-1397.74C279.96,-1407.77 291.97,-1423.63 297,-1440 304.06,-1462.97 294.58,-1489.62 285.53,-1507.73"/>
<polygon fill="black" stroke="black" points="282.29,-1506.36 280.66,-1516.83 288.46,-1509.67 282.29,-1506.36"/>
</g>
<!-- p_25 -->
<g id="node30" class="node">
<title>p_25</title>
<polygon fill="none" stroke="black" points="261,-1332 234,-1314 261,-1296 288,-1314 261,-1332"/>
</g>
<!-- p_22&#45;&gt;p_25 -->
<g id="edge39" class="edge">
<title>p_22&#45;&gt;p_25</title>
<path fill="none" stroke="black" d="M261,-1367.7C261,-1359.98 261,-1350.71 261,-1342.11"/>
<polygon fill="black" stroke="black" points="264.5,-1342.1 261,-1332.1 257.5,-1342.1 264.5,-1342.1"/>
</g>
<!-- p_33&#45;&gt;c737ec70&#45;17de&#45;4c1c&#45;9632&#45;38bb7c92b48c -->
<g id="edge15" class="edge">
<title>p_33&#45;&gt;c737ec70&#45;17de&#45;4c1c&#45;9632&#45;38bb7c92b48c</title>
<path fill="none" stroke="black" d="M244.86,-867.17C241.73,-858.74 237.63,-847.69 233.89,-837.63"/>
<polygon fill="black" stroke="black" points="237.08,-836.17 230.32,-828.02 230.52,-838.61 237.08,-836.17"/>
</g>
<!-- p_34&#45;&gt;p_37 -->
<g id="edge36" class="edge">
<title>p_34&#45;&gt;p_37</title>
<path fill="none" stroke="black" d="M238,-719.7C238,-711.98 238,-702.71 238,-694.11"/>
<polygon fill="black" stroke="black" points="241.5,-694.1 238,-684.1 234.5,-694.1 241.5,-694.1"/>
</g>
<!-- p_34&#45;&gt;p_33 -->
<g id="edge40" class="edge">
<title>p_34&#45;&gt;p_33</title>
<path fill="none" stroke="black" d="M254.66,-745.13C273.02,-752.89 301.57,-768.18 314,-792 321.4,-806.19 320.81,-813.52 314,-828 305.74,-845.56 288.49,-859.3 273.97,-868.39"/>
<polygon fill="black" stroke="black" points="271.81,-865.6 264.96,-873.68 275.35,-871.64 271.81,-865.6"/>
</g>
<!-- p_5&#45;&gt;tauSplit_5 -->
<g id="edge21" class="edge">
<title>p_5&#45;&gt;tauSplit_5</title>
<path fill="none" stroke="black" d="M58.42,-2093.44C65.98,-2083.07 77.24,-2067.61 86.29,-2055.19"/>
<polygon fill="black" stroke="black" points="89.34,-2056.95 92.4,-2046.81 83.68,-2052.83 89.34,-2056.95"/>
</g>
<!-- p_25&#45;&gt;b2e89694&#45;87b8&#45;4153&#45;88dd&#45;e7b203ff7789 -->
<g id="edge17" class="edge">
<title>p_25&#45;&gt;b2e89694&#45;87b8&#45;4153&#45;88dd&#45;e7b203ff7789</title>
<path fill="none" stroke="black" d="M254.98,-1299.83C251.04,-1291.22 245.77,-1279.67 240.99,-1269.24"/>
<polygon fill="black" stroke="black" points="244.15,-1267.72 236.81,-1260.08 237.78,-1270.63 244.15,-1267.72"/>
</g>
<!-- p_26&#45;&gt;p_29 -->
<g id="edge30" class="edge">
<title>p_26&#45;&gt;p_29</title>
<path fill="none" stroke="black" d="M252,-1151.7C252,-1143.98 252,-1134.71 252,-1126.11"/>
<polygon fill="black" stroke="black" points="255.5,-1126.1 252,-1116.1 248.5,-1126.1 255.5,-1126.1"/>
</g>
<!-- p_26&#45;&gt;p_25 -->
<g id="edge41" class="edge">
<title>p_26&#45;&gt;p_25</title>
<path fill="none" stroke="black" d="M264.67,-1179.83C276.86,-1189.19 294.53,-1205.19 302,-1224 307.91,-1238.87 307.17,-1244.86 302,-1260 297.42,-1273.42 287.9,-1286.07 279.2,-1295.65"/>
<polygon fill="black" stroke="black" points="276.61,-1293.29 272.19,-1302.92 281.65,-1298.14 276.61,-1293.29"/>
</g>
<!-- p_17&#45;&gt;c560d0fd&#45;d92b&#45;41e2&#45;b0dc&#45;3f181ec00f13 -->
<g id="edge19" class="edge">
<title>p_17&#45;&gt;c560d0fd&#45;d92b&#45;41e2&#45;b0dc&#45;3f181ec00f13</title>
<path fill="none" stroke="black" d="M275.06,-1730.5C272.82,-1722.23 269.94,-1711.62 267.3,-1701.89"/>
<polygon fill="black" stroke="black" points="270.67,-1700.94 264.67,-1692.2 263.91,-1702.77 270.67,-1700.94"/>
</g>
<!-- p_18&#45;&gt;p_21 -->
<g id="edge37" class="edge">
<title>p_18&#45;&gt;p_21</title>
<path fill="none" stroke="black" d="M273,-1583.7C273,-1575.98 273,-1566.71 273,-1558.11"/>
<polygon fill="black" stroke="black" points="276.5,-1558.1 273,-1548.1 269.5,-1558.1 276.5,-1558.1"/>
</g>
<!-- p_18&#45;&gt;p_17 -->
<g id="edge42" class="edge">
<title>p_18&#45;&gt;p_17</title>
<path fill="none" stroke="black" d="M286.85,-1610.85C300.97,-1619.73 322.03,-1635.66 331,-1656 337.45,-1670.64 337.05,-1677.19 331,-1692 324.72,-1707.36 311.61,-1720.68 300.12,-1730.12"/>
<polygon fill="black" stroke="black" points="297.92,-1727.39 292.16,-1736.29 302.21,-1732.93 297.92,-1727.39"/>
</g>
</g>
</svg>
