<?xml version="1.0" encoding="UTF-8" standalone="no"?>
<!DOCTYPE svg PUBLIC "-//W3C//DTD SVG 1.1//EN"
 "http://www.w3.org/Graphics/SVG/1.1/DTD/svg11.dtd">
<!-- Generated by graphviz version 2.44.1 (20200629.0800)
 -->
<!-- Title: G Pages: 1 -->
<svg width="188pt" height="836pt"
 viewBox="0.00 0.00 188.37 836.00" xmlns="http://www.w3.org/2000/svg" xmlns:xlink="http://www.w3.org/1999/xlink">
<g id="graph0" class="graph" transform="scale(1 1) rotate(0) translate(4 832)">
<title>G</title>
<!-- startevent -->
<g id="node1" class="node">
<title>startevent</title>
<ellipse fill="none" stroke="black" cx="48" cy="-810" rx="27" ry="18"/>
<text text-anchor="middle" x="48" y="-806.3" font-family="Times New Roman,serif" font-size="14.00">start</text>
</g>
<!-- tau_1 -->
<g id="node6" class="node">
<title>tau_1</title>
<polygon fill="none" stroke="black" points="48,-756 21,-738 48,-720 75,-738 48,-756"/>
</g>
<!-- startevent&#45;&gt;tau_1 -->
<g id="edge1" class="edge">
<title>startevent&#45;&gt;tau_1</title>
<path fill="none" stroke="black" d="M48,-791.7C48,-783.98 48,-774.71 48,-766.11"/>
<polygon fill="black" stroke="black" points="51.5,-766.1 48,-756.1 44.5,-766.1 51.5,-766.1"/>
</g>
<!-- endevent -->
<g id="node2" class="node">
<title>endevent</title>
<ellipse fill="none" stroke="black" cx="34" cy="-18" rx="27" ry="18"/>
<text text-anchor="middle" x="34" y="-14.3" font-family="Times New Roman,serif" font-size="14.00">end</text>
</g>
<!-- c5017a9d&#45;6da9&#45;4a5b&#45;8c6a&#45;aa2eaa476511 -->
<g id="node3" class="node">
<title>c5017a9d&#45;6da9&#45;4a5b&#45;8c6a&#45;aa2eaa476511</title>
<path fill="none" stroke="black" d="M153.5,-540C153.5,-540 40.5,-540 40.5,-540 34.5,-540 28.5,-534 28.5,-528 28.5,-528 28.5,-516 28.5,-516 28.5,-510 34.5,-504 40.5,-504 40.5,-504 153.5,-504 153.5,-504 159.5,-504 165.5,-510 165.5,-516 165.5,-516 165.5,-528 165.5,-528 165.5,-534 159.5,-540 153.5,-540"/>
<text text-anchor="middle" x="97" y="-518.3" font-family="Times New Roman,serif" font-size="14.00">Detection Machining</text>
</g>
<!-- p_9 -->
<g id="node8" class="node">
<title>p_9</title>
<polygon fill="none" stroke="black" points="116,-468 89,-450 116,-432 143,-450 116,-468"/>
</g>
<!-- c5017a9d&#45;6da9&#45;4a5b&#45;8c6a&#45;aa2eaa476511&#45;&gt;p_9 -->
<g id="edge4" class="edge">
<title>c5017a9d&#45;6da9&#45;4a5b&#45;8c6a&#45;aa2eaa476511&#45;&gt;p_9</title>
<path fill="none" stroke="black" d="M101.7,-503.7C104,-495.22 106.81,-484.88 109.32,-475.6"/>
<polygon fill="black" stroke="black" points="112.76,-476.31 112,-465.74 106,-474.47 112.76,-476.31"/>
</g>
<!-- c5dad248&#45;542f&#45;4915&#45;811a&#45;bf6cdbad06e4 -->
<g id="node4" class="node">
<title>c5dad248&#45;542f&#45;4915&#45;811a&#45;bf6cdbad06e4</title>
<path fill="none" stroke="black" d="M95.5,-324C95.5,-324 40.5,-324 40.5,-324 34.5,-324 28.5,-318 28.5,-312 28.5,-312 28.5,-300 28.5,-300 28.5,-294 34.5,-288 40.5,-288 40.5,-288 95.5,-288 95.5,-288 101.5,-288 107.5,-294 107.5,-300 107.5,-300 107.5,-312 107.5,-312 107.5,-318 101.5,-324 95.5,-324"/>
<text text-anchor="middle" x="68" y="-302.3" font-family="Times New Roman,serif" font-size="14.00">Machining</text>
</g>
<!-- p_12 -->
<g id="node10" class="node">
<title>p_12</title>
<polygon fill="none" stroke="black" points="68,-252 41,-234 68,-216 95,-234 68,-252"/>
</g>
<!-- c5dad248&#45;542f&#45;4915&#45;811a&#45;bf6cdbad06e4&#45;&gt;p_12 -->
<g id="edge6" class="edge">
<title>c5dad248&#45;542f&#45;4915&#45;811a&#45;bf6cdbad06e4&#45;&gt;p_12</title>
<path fill="none" stroke="black" d="M68,-287.7C68,-279.98 68,-270.71 68,-262.11"/>
<polygon fill="black" stroke="black" points="71.5,-262.1 68,-252.1 64.5,-262.1 71.5,-262.1"/>
</g>
<!-- skip_14 -->
<g id="node5" class="node">
<title>skip_14</title>
<polygon fill="none" stroke="black" points="34,-108 7,-90 34,-72 61,-90 34,-108"/>
</g>
<!-- skip_14&#45;&gt;endevent -->
<g id="edge2" class="edge">
<title>skip_14&#45;&gt;endevent</title>
<path fill="none" stroke="black" d="M34,-71.7C34,-63.98 34,-54.71 34,-46.11"/>
<polygon fill="black" stroke="black" points="37.5,-46.1 34,-36.1 30.5,-46.1 37.5,-46.1"/>
</g>
<!-- p_5 -->
<g id="node12" class="node">
<title>p_5</title>
<polygon fill="none" stroke="black" points="48,-684 21,-666 48,-648 75,-666 48,-684"/>
</g>
<!-- tau_1&#45;&gt;p_5 -->
<g id="edge8" class="edge">
<title>tau_1&#45;&gt;p_5</title>
<path fill="none" stroke="black" d="M48,-719.7C48,-711.98 48,-702.71 48,-694.11"/>
<polygon fill="black" stroke="black" points="51.5,-694.1 48,-684.1 44.5,-694.1 51.5,-694.1"/>
</g>
<!-- p_8 -->
<g id="node7" class="node">
<title>p_8</title>
<polygon fill="none" stroke="black" points="97,-612 70,-594 97,-576 124,-594 97,-612"/>
</g>
<!-- p_8&#45;&gt;c5017a9d&#45;6da9&#45;4a5b&#45;8c6a&#45;aa2eaa476511 -->
<g id="edge3" class="edge">
<title>p_8&#45;&gt;c5017a9d&#45;6da9&#45;4a5b&#45;8c6a&#45;aa2eaa476511</title>
<path fill="none" stroke="black" d="M97,-575.7C97,-567.98 97,-558.71 97,-550.11"/>
<polygon fill="black" stroke="black" points="100.5,-550.1 97,-540.1 93.5,-550.1 100.5,-550.1"/>
</g>
<!-- p_9&#45;&gt;p_8 -->
<g id="edge9" class="edge">
<title>p_9&#45;&gt;p_8</title>
<path fill="none" stroke="black" d="M130.08,-458.79C144.44,-467.62 165.86,-483.5 175,-504 181.52,-518.61 182.49,-525.86 175,-540 164.09,-560.6 141.18,-574.69 123,-583.13"/>
<polygon fill="black" stroke="black" points="121.53,-579.95 113.75,-587.13 124.32,-586.37 121.53,-579.95"/>
</g>
<!-- p_11 -->
<g id="node9" class="node">
<title>p_11</title>
<polygon fill="none" stroke="black" points="116,-396 89,-378 116,-360 143,-378 116,-396"/>
</g>
<!-- p_9&#45;&gt;p_11 -->
<g id="edge11" class="edge">
<title>p_9&#45;&gt;p_11</title>
<path fill="none" stroke="black" d="M116,-431.7C116,-423.98 116,-414.71 116,-406.11"/>
<polygon fill="black" stroke="black" points="119.5,-406.1 116,-396.1 112.5,-406.1 119.5,-406.1"/>
</g>
<!-- p_11&#45;&gt;c5dad248&#45;542f&#45;4915&#45;811a&#45;bf6cdbad06e4 -->
<g id="edge5" class="edge">
<title>p_11&#45;&gt;c5dad248&#45;542f&#45;4915&#45;811a&#45;bf6cdbad06e4</title>
<path fill="none" stroke="black" d="M107.86,-365.13C101.78,-356.26 93.24,-343.81 85.63,-332.71"/>
<polygon fill="black" stroke="black" points="88.33,-330.46 79.79,-324.19 82.56,-334.42 88.33,-330.46"/>
</g>
<!-- p_12&#45;&gt;p_11 -->
<g id="edge12" class="edge">
<title>p_12&#45;&gt;p_11</title>
<path fill="none" stroke="black" d="M80.42,-243.89C92.38,-253.29 109.69,-269.33 117,-288 125.05,-308.57 123.8,-333.92 121.12,-352.29"/>
<polygon fill="black" stroke="black" points="117.66,-351.77 119.44,-362.22 124.56,-352.94 117.66,-351.77"/>
</g>
<!-- p_6 -->
<g id="node11" class="node">
<title>p_6</title>
<polygon fill="none" stroke="black" points="34,-180 7,-162 34,-144 61,-162 34,-180"/>
</g>
<!-- p_12&#45;&gt;p_6 -->
<g id="edge13" class="edge">
<title>p_12&#45;&gt;p_6</title>
<path fill="none" stroke="black" d="M61.6,-219.83C56.9,-210.15 50.4,-196.77 44.89,-185.41"/>
<polygon fill="black" stroke="black" points="47.88,-183.57 40.37,-176.11 41.59,-186.63 47.88,-183.57"/>
</g>
<!-- p_6&#45;&gt;skip_14 -->
<g id="edge7" class="edge">
<title>p_6&#45;&gt;skip_14</title>
<path fill="none" stroke="black" d="M34,-143.7C34,-135.98 34,-126.71 34,-118.11"/>
<polygon fill="black" stroke="black" points="37.5,-118.1 34,-108.1 30.5,-118.1 37.5,-118.1"/>
</g>
<!-- p_6&#45;&gt;p_5 -->
<g id="edge14" class="edge">
<title>p_6&#45;&gt;p_5</title>
<path fill="none" stroke="black" d="M28.54,-176.45C18.93,-201.37 0,-256.58 0,-305 0,-523 0,-523 0,-523 0,-567.73 21.64,-616.41 35.86,-643.57"/>
<polygon fill="black" stroke="black" points="32.88,-645.42 40.71,-652.56 39.04,-642.1 32.88,-645.42"/>
</g>
<!-- p_5&#45;&gt;p_8 -->
<g id="edge10" class="edge">
<title>p_5&#45;&gt;p_8</title>
<path fill="none" stroke="black" d="M56.31,-653.13C63.61,-642.7 74.37,-627.33 82.99,-615.01"/>
<polygon fill="black" stroke="black" points="85.94,-616.9 88.81,-606.7 80.21,-612.88 85.94,-616.9"/>
</g>
</g>
</svg>
